<?xml version="1.0" encoding="UTF-8" standalone="no"?>
<!-- Created with Sodipodi ("http://www.sodipodi.com/") -->

<svg
   xmlns:dc="http://purl.org/dc/elements/1.1/"
   xmlns:cc="http://creativecommons.org/ns#"
   xmlns:rdf="http://www.w3.org/1999/02/22-rdf-syntax-ns#"
   xmlns:svg="http://www.w3.org/2000/svg"
   xmlns="http://www.w3.org/2000/svg"
   xmlns:xlink="http://www.w3.org/1999/xlink"
   xmlns:sodipodi="http://sodipodi.sourceforge.net/DTD/sodipodi-0.dtd"
   xmlns:inkscape="http://www.inkscape.org/namespaces/inkscape"
   version="1.0"
   x="0.00000000"
   y="0.00000000"
   width="48"
   height="48"
   id="svg548"
   sodipodi:version="0.32"
   sodipodi:docname="add_mark_top.svg"
   inkscape:version="0.47 r22583"
   inkscape:label="cross"
   inkscape:export-filename="/home/maker/Projects/e2work/icons-new/add_mark_top_48.png"
   inkscape:export-xdpi="90"
   inkscape:export-ydpi="90">
  <metadata
     id="metadata12">
    <rdf:RDF>
      <cc:Work
         rdf:about="">
        <dc:format>image/svg+xml</dc:format>
        <dc:type
           rdf:resource="http://purl.org/dc/dcmitype/StillImage" />
        <dc:title></dc:title>
        <cc:license
           rdf:resource="http://creativecommons.org/licenses/by-sa/3.0/" />
      </cc:Work>
      <cc:License
         rdf:about="http://creativecommons.org/licenses/by-sa/3.0/">
        <cc:permits
           rdf:resource="http://creativecommons.org/ns#Reproduction" />
        <cc:permits
           rdf:resource="http://creativecommons.org/ns#Distribution" />
        <cc:requires
           rdf:resource="http://creativecommons.org/ns#Notice" />
        <cc:requires
           rdf:resource="http://creativecommons.org/ns#Attribution" />
        <cc:permits
           rdf:resource="http://creativecommons.org/ns#DerivativeWorks" />
        <cc:requires
           rdf:resource="http://creativecommons.org/ns#ShareAlike" />
      </cc:License>
    </rdf:RDF>
  </metadata>
  <sodipodi:namedview
     id="base"
     inkscape:zoom="1"
     inkscape:cx="-151.58581"
     inkscape:cy="4.7125066"
     inkscape:window-width="1014"
     inkscape:window-height="696"
     inkscape:window-x="119"
     inkscape:window-y="193"
     inkscape:current-layer="layer1"
     showgrid="true"
     inkscape:grid-bbox="false"
     inkscape:window-maximized="0" />
  <defs
     id="defs550">
    <inkscape:perspective
       sodipodi:type="inkscape:persp3d"
       inkscape:vp_x="0 : 24 : 1"
       inkscape:vp_y="0 : 1000 : 0"
       inkscape:vp_z="48 : 24 : 1"
       inkscape:persp3d-origin="24 : 16 : 1"
       id="perspective46" />
    <linearGradient
       id="linearGradient8665">
      <stop
         id="stop8666"
         offset="0.0000000"
         style="stop-color:#b21c3d;stop-opacity:1.0000000;" />
      <stop
         id="stop8667"
         offset="1.0000000"
         style="stop-color:#e29d18;stop-opacity:1.0000000;" />
    </linearGradient>
    <linearGradient
       id="linearGradient3604">
      <stop
         id="stop3605"
         offset="0.0000000"
         style="stop-color:#b29362;stop-opacity:1.0000000;" />
      <stop
         id="stop3606"
         offset="1.0000000"
         style="stop-color:#fcfcfc;stop-opacity:1.0000000;" />
    </linearGradient>
    <linearGradient
       y2="65.781578"
       x2="32.810493"
       y1="50.887466"
       x1="24.969002"
       gradientTransform="matrix(1.000137,-0.175936,9.369292e-2,0.416742,-49.94508,21.37441)"
       gradientUnits="userSpaceOnUse"
       id="linearGradient8022"
       xlink:href="#linearGradient3604"
       inkscape:collect="always" />
    <linearGradient
       id="linearGradient7381">
      <stop
         id="stop7382"
         offset="0.0000000"
         style="stop-color:#000000;stop-opacity:0.57291669;" />
      <stop
         id="stop7383"
         offset="1"
         style="stop-color:#000000;stop-opacity:0;" />
    </linearGradient>
    <linearGradient
       inkscape:collect="always"
       xlink:href="#linearGradient7381"
       id="linearGradient3525"
       gradientUnits="userSpaceOnUse"
       gradientTransform="matrix(1.615384,0.535792,-0.215499,0.845775,17.36002,-45.70724)"
       x1="18.752581"
       y1="89.391884"
       x2="26.260439"
       y2="95.193291" />
    <linearGradient
       id="linearGradient578">
      <stop
         style="stop-color:#ea4a30;stop-opacity:1.0000000;"
         offset="0.0000000"
         id="stop579" />
      <stop
         style="stop-color:#b9411c;stop-opacity:1.0000000;"
         offset="1.0000000"
         id="stop580" />
    </linearGradient>
    <linearGradient
       xlink:href="#linearGradient578"
       id="linearGradient581"
       x1="4.1502929"
       y1="5.2784929"
       x2="54.585316"
       y2="54.579109"
       gradientTransform="matrix(0.392862,0,0,0.463509,18.64475,1.127726)"
       gradientUnits="userSpaceOnUse" />
    <linearGradient
       id="linearGradient584">
      <stop
         style="stop-color:#ffffff;stop-opacity:1;"
         offset="0.00000000"
         id="stop585" />
      <stop
         style="stop-color:#ffffff;stop-opacity:0;"
         offset="1.00000000"
         id="stop586" />
    </linearGradient>
    <linearGradient
       xlink:href="#linearGradient584"
       id="linearGradient614"
       x1="32.196262"
       y1="45.89827"
       x2="38.573887"
       y2="28.927324"
       gradientTransform="matrix(0.440995,0,0,-0.602127,8.68748,27.43377)"
       gradientUnits="userSpaceOnUse" />
    <linearGradient
       x1="0"
       y1="0"
       x2="1"
       y2="0"
       id="linearGradient556"
       gradientUnits="objectBoundingBox"
       spreadMethod="pad">
      <stop
         style="stop-color:#ff8700;stop-opacity:1;"
         offset="0.00000000"
         id="stop557" />
      <stop
         style="stop-color:#ffff8d;stop-opacity:0;"
         offset="1.00000000"
         id="stop558" />
    </linearGradient>
    <linearGradient
       x1="0"
       y1="0"
       x2="1"
       y2="0"
       id="linearGradient559"
       xlink:href="#linearGradient556"
       gradientUnits="objectBoundingBox"
       spreadMethod="pad" />
    <linearGradient
       inkscape:collect="always"
       xlink:href="#linearGradient584"
       id="linearGradient4157"
       x1="11.00067"
       y1="2.2978752"
       x2="14.338387"
       y2="21.257177"
       gradientUnits="userSpaceOnUse" />
    <linearGradient
       inkscape:collect="always"
       xlink:href="#linearGradient584"
       id="linearGradient4163"
       gradientUnits="userSpaceOnUse"
       x1="11.00067"
       y1="2.2978752"
       x2="14.338387"
       y2="21.257177"
       gradientTransform="matrix(0.739131,0,0,0.73913,26.54311,24.39827)" />
    <linearGradient
       inkscape:collect="always"
       xlink:href="#linearGradient584"
       id="linearGradient4283"
       gradientUnits="userSpaceOnUse"
       gradientTransform="matrix(0.739131,0,0,0.73913,26.54311,24.39827)"
       x1="11.00067"
       y1="2.2978752"
       x2="14.338387"
       y2="21.257177" />
    <linearGradient
       inkscape:collect="always"
       xlink:href="#linearGradient584"
       id="linearGradient1350"
       gradientUnits="userSpaceOnUse"
       gradientTransform="matrix(1.443414,0,0,1.434783,1.764964,9.173024)"
       x1="11.00067"
       y1="2.2978752"
       x2="14.338387"
       y2="21.257177" />
    <linearGradient
       inkscape:collect="always"
       xlink:href="#linearGradient584"
       id="linearGradient1419"
       gradientUnits="userSpaceOnUse"
       gradientTransform="matrix(1.443414,0,0,1.434783,1.764964,9.173024)"
       x1="11.00067"
       y1="2.2978752"
       x2="14.338387"
       y2="21.257177" />
    <linearGradient
       inkscape:collect="always"
       xlink:href="#linearGradient584"
       id="linearGradient1398"
       gradientUnits="userSpaceOnUse"
       gradientTransform="matrix(0.440995,0,0,-0.602127,8.68748,27.43377)"
       x1="32.196262"
       y1="45.89827"
       x2="38.573887"
       y2="28.927324" />
  </defs>
  <g
     inkscape:groupmode="layer"
     id="layer3"
     inkscape:label="book" />
  <g
     inkscape:groupmode="layer"
     id="layer2"
     inkscape:label="cross">
    <g
       id="g1396"
       transform="matrix(1.235295,0,0,1.235294,-5.569352,-11.64849)">
      <path
         sodipodi:nodetypes="cscsscsscsscs"
         id="path589"
         d="M 8.2195284,27.306609 C 7.1762784,27.308338 7.1762784,35.114994 8.2195284,35.11585 L 20.135794,35.125625 L 20.004704,47.021762 C 19.993463,48.041921 27.766025,48.041923 27.777353,47.021762 L 27.908445,35.216669 L 39.654696,35.11585 C 40.697908,35.106895 40.697829,27.563716 39.654696,27.547748 L 27.908445,27.367933 L 27.908445,15.494416 C 27.908445,14.474201 20.135794,14.594775 20.135794,15.614985 L 20.135794,27.286854 L 8.2195284,27.306609 z "
         style="font-size:12px;fill:#6daf30;fill-opacity:1;fill-rule:evenodd;stroke:#3a5d19;stroke-width:0.80952382;stroke-miterlimit:4;stroke-dasharray:none;stroke-opacity:1" />
      <path
         sodipodi:nodetypes="cccsccccss"
         id="path3139"
         d="M 22.549404,27.320877 C 22.549404,27.320877 22.364337,18.280018 22.598085,17.315002 C 23.473574,16.276252 26.798126,16.750277 26.798126,16.750277 L 27.360092,15.74006 C 27.613158,15.285136 21.58971,15.14357 20.72184,15.849089 L 20.72451,27.764892 L 8.3973115,27.729822 C 8.2043171,28.368817 7.9447079,28.870069 8.0805461,29.602675 L 20.279247,29.569405 C 21.794908,29.56527 22.583633,28.80271 22.549404,27.320877 z "
         style="font-size:12px;fill:url(#linearGradient1419);fill-opacity:1;fill-rule:evenodd;stroke:none;stroke-width:0.83871002pt" />
      <path
         sodipodi:nodetypes="ccccscccss"
         id="path3141"
         d="M 25.05439,34.6296 C 25.05439,34.6296 25.195261,42.433024 25.005707,44.635473 C 24.130219,45.674226 21.78627,45.330181 21.78627,45.330181 L 20.647698,46.816141 C 21.581268,47.382012 27.223649,47.495407 27.227171,46.974874 L 27.310805,34.614532 L 39.60006,34.605408 C 39.793055,33.966415 40.004302,33.166197 39.868464,32.433592 L 27.324544,32.381075 C 25.808889,32.374729 25.020159,33.14777 25.05439,34.6296 z "
         style="font-size:12px;opacity:0.20297032;fill:#261e2e;fill-opacity:1;fill-rule:evenodd;stroke:none;stroke-width:0.83871002pt" />
    </g>
  </g>
  <g
     inkscape:groupmode="layer"
     id="layer1"
     inkscape:label="arrow">
    <g
       id="g1393"
       transform="matrix(1.525423,0,0,0.894753,-12.61016,5.24762e-2)">
      <path
         sodipodi:nodetypes="csssz"
         id="path3274"
         d="M 24.919226,18.873144 C 22.094169,18.79003 14.34875,19.9757 14.502249,19.053044 C 14.661939,18.195272 21.972725,0.58365964 24.085525,0.49999364 C 26.015173,0.53778264 33.353056,17.846848 33.498306,19.053044 C 33.613036,20.116045 27.896753,18.960745 24.919226,18.873144 z "
         style="font-size:12px;fill:#6daf30;fill-opacity:1;fill-rule:evenodd;stroke:#3a5d19;stroke-width:0.85595995;stroke-miterlimit:4;stroke-dasharray:none;stroke-opacity:1" />
      <path
         sodipodi:nodetypes="ccccc"
         id="path644"
         d="M 15.399497,18.722269 C 18.924902,17.247567 23.755406,16.227633 24.077708,3.3661282 C 27.723161,3.4114096 32.258552,16.144138 33.243528,19.553602 C 30.738818,18.643128 26.500034,18.732408 23.880192,18.442506 C 21.238674,18.571859 16.542609,18.910033 15.399497,18.722269 z "
         style="opacity:0.20178294;fill:#261e2e;fill-opacity:1;fill-rule:evenodd;stroke:none;stroke-width:1pt;stroke-linecap:butt;stroke-linejoin:miter;stroke-opacity:1" />
      <path
         sodipodi:nodetypes="ccsccc"
         id="path613"
         d="M 21.798529,4.2173983 C 21.111935,5.3833923 18.885516,10.136879 18.386684,11.159383 C 19.952171,9.8960574 22.119105,3.2820579 23.98637,3.3122549 C 25.689592,3.3397989 26.131481,4.6562115 26.739912,5.0758131 C 26.180211,4.0072938 24.833511,1.3798432 24.035103,0.92862824 C 23.663978,1.1051582 22.354478,3.3317557 21.798529,4.2173983 z "
         style="fill:url(#linearGradient1398);fill-opacity:1;fill-rule:evenodd;stroke:none;stroke-width:1pt;stroke-linecap:butt;stroke-linejoin:miter;stroke-opacity:1" />
    </g>
  </g>
</svg>
