<?xml version="1.0" encoding="UTF-8" standalone="no"?>
<!-- Created with Inkscape (http://www.inkscape.org/) -->
<svg
   xmlns:dc="http://purl.org/dc/elements/1.1/"
   xmlns:cc="http://creativecommons.org/ns#"
   xmlns:rdf="http://www.w3.org/1999/02/22-rdf-syntax-ns#"
   xmlns:svg="http://www.w3.org/2000/svg"
   xmlns="http://www.w3.org/2000/svg"
   xmlns:xlink="http://www.w3.org/1999/xlink"
   xmlns:sodipodi="http://sodipodi.sourceforge.net/DTD/sodipodi-0.dtd"
   xmlns:inkscape="http://www.inkscape.org/namespaces/inkscape"
   inkscape:export-ydpi="90.000000"
   inkscape:export-xdpi="90.000000"
   inkscape:export-filename="/home/maker/Projects/e2work/icons-new/su_48.png"
   sodipodi:docname="key.svg"
   sodipodi:docbase="/home/maker/Projects/e2work/icons-new/icon-work"
   inkscape:version="0.46"
   sodipodi:version="0.32"
   id="svg1343"
   height="48.000000px"
   width="48.000000px"
   inkscape:output_extension="org.inkscape.output.svg.inkscape">
  <defs
     id="defs3">
    <inkscape:perspective
       sodipodi:type="inkscape:persp3d"
       inkscape:vp_x="0 : 24 : 1"
       inkscape:vp_y="0 : 1000 : 0"
       inkscape:vp_z="48 : 24 : 1"
       inkscape:persp3d-origin="24 : 16 : 1"
       id="perspective2751" />
    <linearGradient
       id="linearGradient3906">
      <stop
         style="stop-color:#763900;stop-opacity:1;"
         offset="0"
         id="stop3908" />
      <stop
         style="stop-color:#763900;stop-opacity:0.71875000;"
         offset="0.80000001"
         id="stop3912" />
      <stop
         style="stop-color:#763900;stop-opacity:0;"
         offset="1"
         id="stop3910" />
    </linearGradient>
    <linearGradient
       id="linearGradient3809">
      <stop
         style="stop-color:#763900;stop-opacity:1;"
         offset="0"
         id="stop3811" />
      <stop
         style="stop-color:#763900;stop-opacity:0;"
         offset="1"
         id="stop3813" />
    </linearGradient>
    <linearGradient
       id="linearGradient3789">
      <stop
         style="stop-color:#fafaf2;stop-opacity:0.67708331;"
         offset="0.0000000"
         id="stop3791" />
      <stop
         style="stop-color:#fafaf2;stop-opacity:0;"
         offset="1"
         id="stop3793" />
    </linearGradient>
    <linearGradient
       inkscape:collect="always"
       xlink:href="#linearGradient3789"
       id="linearGradient3795"
       gradientTransform="scale(1.612802,0.620039)"
       x1="11.834872"
       y1="13.247005"
       x2="12.902342"
       y2="14.348741"
       gradientUnits="userSpaceOnUse" />
    <linearGradient
       inkscape:collect="always"
       xlink:href="#linearGradient3789"
       id="linearGradient3799"
       gradientUnits="userSpaceOnUse"
       gradientTransform="matrix(1.612802,0.000000,0.000000,0.620039,10.64124,12.36396)"
       x1="11.947909"
       y1="12.693550"
       x2="10.707693"
       y2="11.383562" />
    <linearGradient
       inkscape:collect="always"
       xlink:href="#linearGradient3789"
       id="linearGradient3803"
       gradientUnits="userSpaceOnUse"
       gradientTransform="scale(1.612802,0.620039)"
       x1="22.635773"
       y1="69.979073"
       x2="21.722250"
       y2="69.019592" />
    <linearGradient
       inkscape:collect="always"
       xlink:href="#linearGradient3789"
       id="linearGradient3807"
       gradientUnits="userSpaceOnUse"
       gradientTransform="scale(1.612802,0.620039)"
       x1="26.263668"
       y1="80.739388"
       x2="25.497272"
       y2="79.752960" />
    <linearGradient
       inkscape:collect="always"
       xlink:href="#linearGradient3809"
       id="linearGradient3815"
       gradientTransform="scale(1.916921,0.521670)"
       x1="10.889811"
       y1="55.910015"
       x2="10.223278"
       y2="47.542702"
       gradientUnits="userSpaceOnUse" />
    <linearGradient
       inkscape:collect="always"
       xlink:href="#linearGradient3809"
       id="linearGradient3823"
       gradientTransform="matrix(0.864228,0.000000,0.000000,1.157102,-0.437500,-0.687500)"
       x1="46.052223"
       y1="18.567799"
       x2="43.207645"
       y2="15.813098"
       gradientUnits="userSpaceOnUse" />
    <linearGradient
       inkscape:collect="always"
       xlink:href="#linearGradient3809"
       id="linearGradient3831"
       gradientTransform="scale(1.346118,0.742877)"
       x1="25.510965"
       y1="54.553165"
       x2="24.003399"
       y2="50.468029"
       gradientUnits="userSpaceOnUse" />
    <linearGradient
       inkscape:collect="always"
       xlink:href="#linearGradient3809"
       id="linearGradient3839"
       gradientTransform="scale(1.074246,0.930886)"
       x1="36.730026"
       y1="50.916935"
       x2="34.962704"
       y2="47.422832"
       gradientUnits="userSpaceOnUse" />
    <linearGradient
       inkscape:collect="always"
       xlink:href="#linearGradient3809"
       id="linearGradient3847"
       gradientTransform="scale(1.465839,0.682203)"
       x1="32.252487"
       y1="79.646477"
       x2="30.983456"
       y2="74.874741"
       gradientUnits="userSpaceOnUse" />
    <linearGradient
       inkscape:collect="always"
       xlink:href="#linearGradient3906"
       id="linearGradient3904"
       gradientTransform="scale(1.412874,0.707777)"
       x1="16.773630"
       y1="22.794935"
       x2="12.503508"
       y2="16.797035"
       gradientUnits="userSpaceOnUse" />
    <linearGradient
       inkscape:collect="always"
       xlink:href="#linearGradient3809"
       id="linearGradient3932"
       gradientUnits="userSpaceOnUse"
       gradientTransform="scale(1.916921,0.521670)"
       x1="10.889811"
       y1="55.910015"
       x2="10.223278"
       y2="47.542702" />
    <linearGradient
       inkscape:collect="always"
       xlink:href="#linearGradient3809"
       id="linearGradient3934"
       gradientUnits="userSpaceOnUse"
       gradientTransform="scale(1.346118,0.742877)"
       x1="25.510965"
       y1="54.553165"
       x2="24.003399"
       y2="50.468029" />
    <linearGradient
       inkscape:collect="always"
       xlink:href="#linearGradient3809"
       id="linearGradient3936"
       gradientUnits="userSpaceOnUse"
       gradientTransform="scale(1.465839,0.682203)"
       x1="32.252487"
       y1="79.646477"
       x2="30.983456"
       y2="74.874741" />
    <linearGradient
       inkscape:collect="always"
       xlink:href="#linearGradient3809"
       id="linearGradient3938"
       gradientUnits="userSpaceOnUse"
       gradientTransform="scale(1.074246,0.930886)"
       x1="36.730026"
       y1="50.916935"
       x2="34.962704"
       y2="47.422832" />
    <linearGradient
       inkscape:collect="always"
       xlink:href="#linearGradient3906"
       id="linearGradient3940"
       gradientUnits="userSpaceOnUse"
       gradientTransform="scale(1.412874,0.707777)"
       x1="16.773630"
       y1="22.794935"
       x2="12.503508"
       y2="16.797035" />
    <linearGradient
       inkscape:collect="always"
       xlink:href="#linearGradient3789"
       id="linearGradient3942"
       gradientUnits="userSpaceOnUse"
       gradientTransform="scale(1.612802,0.620039)"
       x1="11.834872"
       y1="13.247005"
       x2="12.902342"
       y2="14.348741" />
    <linearGradient
       inkscape:collect="always"
       xlink:href="#linearGradient3809"
       id="linearGradient3944"
       gradientUnits="userSpaceOnUse"
       gradientTransform="matrix(0.864228,0.000000,0.000000,1.157102,-0.437500,-0.687500)"
       x1="46.052223"
       y1="18.567799"
       x2="43.207645"
       y2="15.813098" />
    <linearGradient
       inkscape:collect="always"
       xlink:href="#linearGradient3789"
       id="linearGradient3946"
       gradientUnits="userSpaceOnUse"
       gradientTransform="scale(1.612802,0.620039)"
       x1="22.635773"
       y1="69.979073"
       x2="21.722250"
       y2="69.019592" />
    <linearGradient
       inkscape:collect="always"
       xlink:href="#linearGradient3789"
       id="linearGradient3948"
       gradientUnits="userSpaceOnUse"
       gradientTransform="scale(1.612802,0.620039)"
       x1="26.263668"
       y1="80.739388"
       x2="25.497272"
       y2="79.752960" />
    <linearGradient
       inkscape:collect="always"
       xlink:href="#linearGradient3789"
       id="linearGradient3951"
       gradientUnits="userSpaceOnUse"
       gradientTransform="matrix(1.626011,0.000000,0.000000,0.641529,3.793582e-2,-1.618794)"
       x1="26.263668"
       y1="80.739388"
       x2="25.497272"
       y2="79.752960" />
    <linearGradient
       inkscape:collect="always"
       xlink:href="#linearGradient3789"
       id="linearGradient3954"
       gradientUnits="userSpaceOnUse"
       gradientTransform="matrix(1.626011,0.000000,0.000000,0.641529,3.793582e-2,-1.618794)"
       x1="22.635773"
       y1="69.979073"
       x2="21.722250"
       y2="69.019592" />
    <linearGradient
       inkscape:collect="always"
       xlink:href="#linearGradient3809"
       id="linearGradient3957"
       gradientUnits="userSpaceOnUse"
       gradientTransform="matrix(0.871306,0.000000,0.000000,1.197206,-0.403147,-2.330122)"
       x1="46.052223"
       y1="18.567799"
       x2="43.207645"
       y2="15.813098" />
    <linearGradient
       inkscape:collect="always"
       xlink:href="#linearGradient3789"
       id="linearGradient3960"
       gradientUnits="userSpaceOnUse"
       gradientTransform="matrix(1.626011,0.000000,0.000000,0.641529,3.793582e-2,-1.618794)"
       x1="11.834872"
       y1="13.247005"
       x2="12.902342"
       y2="14.348741" />
    <linearGradient
       inkscape:collect="always"
       xlink:href="#linearGradient3906"
       id="linearGradient3963"
       gradientUnits="userSpaceOnUse"
       gradientTransform="matrix(1.424445,0.000000,0.000000,0.732308,3.793582e-2,-1.618794)"
       x1="16.773630"
       y1="22.794935"
       x2="12.503508"
       y2="16.797035" />
    <linearGradient
       inkscape:collect="always"
       xlink:href="#linearGradient3809"
       id="linearGradient3969"
       gradientUnits="userSpaceOnUse"
       gradientTransform="matrix(1.083044,0.000000,0.000000,0.963150,3.793582e-2,-1.618794)"
       x1="36.730026"
       y1="50.916935"
       x2="34.962704"
       y2="47.422832" />
    <linearGradient
       inkscape:collect="always"
       xlink:href="#linearGradient3809"
       id="linearGradient3973"
       gradientUnits="userSpaceOnUse"
       gradientTransform="matrix(1.477844,0.000000,0.000000,0.705847,3.793582e-2,-1.618794)"
       x1="32.252487"
       y1="79.646477"
       x2="30.983456"
       y2="74.874741" />
    <linearGradient
       inkscape:collect="always"
       xlink:href="#linearGradient3809"
       id="linearGradient3976"
       gradientUnits="userSpaceOnUse"
       gradientTransform="matrix(1.357143,0.000000,0.000000,0.768624,3.793582e-2,-1.618794)"
       x1="25.510965"
       y1="54.553165"
       x2="24.003399"
       y2="50.468029" />
    <linearGradient
       inkscape:collect="always"
       xlink:href="#linearGradient3809"
       id="linearGradient3979"
       gradientUnits="userSpaceOnUse"
       gradientTransform="matrix(1.932621,0.000000,0.000000,0.539751,3.793582e-2,-1.618794)"
       x1="10.889811"
       y1="55.910015"
       x2="10.223278"
       y2="47.542702" />
    <linearGradient
       inkscape:collect="always"
       xlink:href="#linearGradient3809"
       id="linearGradient4002"
       gradientUnits="userSpaceOnUse"
       gradientTransform="matrix(1.932621,0.000000,0.000000,0.539751,3.793582e-2,-1.618794)"
       x1="10.889811"
       y1="55.910015"
       x2="10.223278"
       y2="47.542702" />
    <linearGradient
       inkscape:collect="always"
       xlink:href="#linearGradient3809"
       id="linearGradient4004"
       gradientUnits="userSpaceOnUse"
       gradientTransform="matrix(1.357143,0.000000,0.000000,0.768624,3.793582e-2,-1.618794)"
       x1="25.510965"
       y1="54.553165"
       x2="24.003399"
       y2="50.468029" />
    <linearGradient
       inkscape:collect="always"
       xlink:href="#linearGradient3809"
       id="linearGradient4006"
       gradientUnits="userSpaceOnUse"
       gradientTransform="matrix(1.477844,0.000000,0.000000,0.705847,3.793582e-2,-1.618794)"
       x1="32.252487"
       y1="79.646477"
       x2="30.983456"
       y2="74.874741" />
    <linearGradient
       inkscape:collect="always"
       xlink:href="#linearGradient3809"
       id="linearGradient4008"
       gradientUnits="userSpaceOnUse"
       gradientTransform="matrix(1.083044,0.000000,0.000000,0.963150,3.793582e-2,-1.618794)"
       x1="36.730026"
       y1="50.916935"
       x2="34.962704"
       y2="47.422832" />
    <linearGradient
       inkscape:collect="always"
       xlink:href="#linearGradient3906"
       id="linearGradient4010"
       gradientUnits="userSpaceOnUse"
       gradientTransform="matrix(1.424445,0.000000,0.000000,0.732308,3.793582e-2,-1.618794)"
       x1="16.773630"
       y1="22.794935"
       x2="12.503508"
       y2="16.797035" />
    <linearGradient
       inkscape:collect="always"
       xlink:href="#linearGradient3789"
       id="linearGradient4012"
       gradientUnits="userSpaceOnUse"
       gradientTransform="matrix(1.626011,0.000000,0.000000,0.641529,3.793582e-2,-1.618794)"
       x1="11.834872"
       y1="13.247005"
       x2="12.902342"
       y2="14.348741" />
    <linearGradient
       inkscape:collect="always"
       xlink:href="#linearGradient3809"
       id="linearGradient4014"
       gradientUnits="userSpaceOnUse"
       gradientTransform="matrix(0.871306,0.000000,0.000000,1.197206,-0.403147,-2.330122)"
       x1="46.052223"
       y1="18.567799"
       x2="43.207645"
       y2="15.813098" />
    <linearGradient
       inkscape:collect="always"
       xlink:href="#linearGradient3789"
       id="linearGradient4016"
       gradientUnits="userSpaceOnUse"
       gradientTransform="matrix(1.626011,0.000000,0.000000,0.641529,3.793582e-2,-1.618794)"
       x1="22.635773"
       y1="69.979073"
       x2="21.722250"
       y2="69.019592" />
    <linearGradient
       inkscape:collect="always"
       xlink:href="#linearGradient3789"
       id="linearGradient4018"
       gradientUnits="userSpaceOnUse"
       gradientTransform="matrix(1.626011,0.000000,0.000000,0.641529,3.793582e-2,-1.618794)"
       x1="26.263668"
       y1="80.739388"
       x2="25.497272"
       y2="79.752960" />
    <linearGradient
       inkscape:collect="always"
       xlink:href="#linearGradient3789"
       id="linearGradient4021"
       gradientUnits="userSpaceOnUse"
       gradientTransform="matrix(1.624948,0.000000,0.000000,0.643309,3.340648e-2,-0.685200)"
       x1="26.263668"
       y1="80.739388"
       x2="25.497272"
       y2="79.752960" />
    <linearGradient
       inkscape:collect="always"
       xlink:href="#linearGradient3789"
       id="linearGradient4024"
       gradientUnits="userSpaceOnUse"
       gradientTransform="matrix(1.624948,0.000000,0.000000,0.643309,3.340648e-2,-0.685200)"
       x1="22.635773"
       y1="69.979073"
       x2="21.722250"
       y2="69.019592" />
    <linearGradient
       inkscape:collect="always"
       xlink:href="#linearGradient3809"
       id="linearGradient4027"
       gradientUnits="userSpaceOnUse"
       gradientTransform="matrix(0.870736,0.000000,0.000000,1.200528,-0.407388,-1.398502)"
       x1="46.052223"
       y1="18.567799"
       x2="43.207645"
       y2="15.813098" />
    <linearGradient
       inkscape:collect="always"
       xlink:href="#linearGradient3789"
       id="linearGradient4030"
       gradientUnits="userSpaceOnUse"
       gradientTransform="matrix(1.624948,0.000000,0.000000,0.643309,3.340648e-2,-0.685200)"
       x1="11.834872"
       y1="13.247005"
       x2="12.902342"
       y2="14.348741" />
    <linearGradient
       inkscape:collect="always"
       xlink:href="#linearGradient3906"
       id="linearGradient4033"
       gradientUnits="userSpaceOnUse"
       gradientTransform="matrix(1.423513,0.000000,0.000000,0.734340,3.340648e-2,-0.685200)"
       x1="16.773630"
       y1="22.794935"
       x2="12.503508"
       y2="16.797035" />
    <linearGradient
       inkscape:collect="always"
       xlink:href="#linearGradient3809"
       id="linearGradient4039"
       gradientUnits="userSpaceOnUse"
       gradientTransform="matrix(1.082336,0.000000,0.000000,0.965823,3.340648e-2,-0.685200)"
       x1="36.730026"
       y1="50.916935"
       x2="34.962704"
       y2="47.422832" />
    <linearGradient
       inkscape:collect="always"
       xlink:href="#linearGradient3809"
       id="linearGradient4046"
       gradientUnits="userSpaceOnUse"
       gradientTransform="matrix(1.356255,0.000000,0.000000,0.770757,3.340648e-2,-0.685200)"
       x1="25.510965"
       y1="54.553165"
       x2="24.003399"
       y2="50.468029" />
    <linearGradient
       inkscape:collect="always"
       xlink:href="#linearGradient3809"
       id="linearGradient4049"
       gradientUnits="userSpaceOnUse"
       gradientTransform="matrix(1.931357,0.000000,0.000000,0.541249,3.340648e-2,-0.685200)"
       x1="10.889811"
       y1="55.910015"
       x2="10.223278"
       y2="47.542702" />
    <radialGradient
       inkscape:collect="always"
       xlink:href="#linearGradient3809"
       id="radialGradient4054"
       gradientTransform="scale(1.292909,0.773450)"
       cx="41.496334"
       cy="71.416321"
       fx="41.496319"
       fy="71.457962"
       r="6.0667119"
       gradientUnits="userSpaceOnUse" />
    <linearGradient
       inkscape:collect="always"
       xlink:href="#linearGradient3809"
       id="linearGradient4074"
       gradientUnits="userSpaceOnUse"
       gradientTransform="matrix(1.931357,0.000000,0.000000,0.541249,3.340648e-2,-0.685200)"
       x1="10.889811"
       y1="55.910015"
       x2="10.223278"
       y2="47.542702" />
    <linearGradient
       inkscape:collect="always"
       xlink:href="#linearGradient3809"
       id="linearGradient4076"
       gradientUnits="userSpaceOnUse"
       gradientTransform="matrix(1.356255,0.000000,0.000000,0.770757,3.340648e-2,-0.685200)"
       x1="25.510965"
       y1="54.553165"
       x2="24.003399"
       y2="50.468029" />
    <radialGradient
       inkscape:collect="always"
       xlink:href="#linearGradient3809"
       id="radialGradient4078"
       gradientUnits="userSpaceOnUse"
       gradientTransform="scale(1.292909,0.773450)"
       cx="41.496334"
       cy="71.416321"
       fx="41.496319"
       fy="71.457962"
       r="6.0667119" />
    <linearGradient
       inkscape:collect="always"
       xlink:href="#linearGradient3809"
       id="linearGradient4080"
       gradientUnits="userSpaceOnUse"
       gradientTransform="matrix(1.082336,0.000000,0.000000,0.965823,3.340648e-2,-0.685200)"
       x1="36.730026"
       y1="50.916935"
       x2="34.962704"
       y2="47.422832" />
    <linearGradient
       inkscape:collect="always"
       xlink:href="#linearGradient3906"
       id="linearGradient4082"
       gradientUnits="userSpaceOnUse"
       gradientTransform="matrix(1.423513,0.000000,0.000000,0.734340,3.340648e-2,-0.685200)"
       x1="16.773630"
       y1="22.794935"
       x2="12.503508"
       y2="16.797035" />
    <linearGradient
       inkscape:collect="always"
       xlink:href="#linearGradient3789"
       id="linearGradient4084"
       gradientUnits="userSpaceOnUse"
       gradientTransform="matrix(1.624948,0.000000,0.000000,0.643309,3.340648e-2,-0.685200)"
       x1="11.834872"
       y1="13.247005"
       x2="12.902342"
       y2="14.348741" />
    <linearGradient
       inkscape:collect="always"
       xlink:href="#linearGradient3809"
       id="linearGradient4086"
       gradientUnits="userSpaceOnUse"
       gradientTransform="matrix(0.870736,0.000000,0.000000,1.200528,-0.407388,-1.398502)"
       x1="46.052223"
       y1="18.567799"
       x2="43.207645"
       y2="15.813098" />
    <linearGradient
       inkscape:collect="always"
       xlink:href="#linearGradient3789"
       id="linearGradient4088"
       gradientUnits="userSpaceOnUse"
       gradientTransform="matrix(1.624948,0.000000,0.000000,0.643309,3.340648e-2,-0.685200)"
       x1="22.635773"
       y1="69.979073"
       x2="21.722250"
       y2="69.019592" />
    <linearGradient
       inkscape:collect="always"
       xlink:href="#linearGradient3789"
       id="linearGradient4090"
       gradientUnits="userSpaceOnUse"
       gradientTransform="matrix(1.624948,0.000000,0.000000,0.643309,3.340648e-2,-0.685200)"
       x1="26.263668"
       y1="80.739388"
       x2="25.497272"
       y2="79.752960" />
    <linearGradient
       inkscape:collect="always"
       xlink:href="#linearGradient3789"
       id="linearGradient4093"
       gradientUnits="userSpaceOnUse"
       gradientTransform="matrix(1.624948,0.000000,0.000000,0.661347,3.340648e-2,-0.732468)"
       x1="26.263668"
       y1="80.739388"
       x2="25.497272"
       y2="79.752960" />
    <linearGradient
       inkscape:collect="always"
       xlink:href="#linearGradient3789"
       id="linearGradient4096"
       gradientUnits="userSpaceOnUse"
       gradientTransform="matrix(1.624948,0.000000,0.000000,0.661347,3.340648e-2,-0.732468)"
       x1="22.635773"
       y1="69.979073"
       x2="21.722250"
       y2="69.019592" />
    <linearGradient
       inkscape:collect="always"
       xlink:href="#linearGradient3809"
       id="linearGradient4099"
       gradientUnits="userSpaceOnUse"
       gradientTransform="matrix(0.870736,0.000000,0.000000,1.234190,-0.672553,-1.819323)"
       x1="46.052223"
       y1="18.567799"
       x2="43.207645"
       y2="15.813098" />
    <linearGradient
       inkscape:collect="always"
       xlink:href="#linearGradient3789"
       id="linearGradient4102"
       gradientUnits="userSpaceOnUse"
       gradientTransform="matrix(1.624948,0.000000,0.000000,0.661347,3.340648e-2,-0.732468)"
       x1="11.834872"
       y1="13.247005"
       x2="12.902342"
       y2="14.348741" />
    <linearGradient
       inkscape:collect="always"
       xlink:href="#linearGradient3906"
       id="linearGradient4105"
       gradientUnits="userSpaceOnUse"
       gradientTransform="matrix(1.423513,0.000000,0.000000,0.754930,3.340648e-2,-0.732468)"
       x1="16.773630"
       y1="22.794935"
       x2="12.503508"
       y2="16.797035" />
    <linearGradient
       inkscape:collect="always"
       xlink:href="#linearGradient3809"
       id="linearGradient4111"
       gradientUnits="userSpaceOnUse"
       gradientTransform="matrix(1.082336,0.000000,0.000000,0.992904,3.340648e-2,-0.732468)"
       x1="36.730026"
       y1="50.916935"
       x2="34.962704"
       y2="47.422832" />
    <radialGradient
       inkscape:collect="always"
       xlink:href="#linearGradient3809"
       id="radialGradient4115"
       gradientUnits="userSpaceOnUse"
       gradientTransform="matrix(1.292909,0.000000,0.000000,0.795137,0.000000,-2.805536e-2)"
       cx="41.496334"
       cy="71.416321"
       fx="41.496319"
       fy="71.457962"
       r="6.0667119" />
    <linearGradient
       inkscape:collect="always"
       xlink:href="#linearGradient3809"
       id="linearGradient4118"
       gradientUnits="userSpaceOnUse"
       gradientTransform="matrix(1.356255,0.000000,0.000000,0.792368,3.340648e-2,-0.732468)"
       x1="25.510965"
       y1="54.553165"
       x2="24.003399"
       y2="50.468029" />
    <linearGradient
       inkscape:collect="always"
       xlink:href="#linearGradient3809"
       id="linearGradient4121"
       gradientUnits="userSpaceOnUse"
       gradientTransform="matrix(1.931357,0.000000,0.000000,0.556425,3.340648e-2,-0.732468)"
       x1="10.889811"
       y1="55.910015"
       x2="10.223278"
       y2="47.542702" />
    <linearGradient
       inkscape:collect="always"
       xlink:href="#linearGradient3789"
       id="linearGradient1404"
       gradientUnits="userSpaceOnUse"
       gradientTransform="matrix(1.444398,0.000000,0.000000,0.549936,-2.636967,-1.669978)"
       x1="26.263668"
       y1="80.739388"
       x2="25.497272"
       y2="79.752960" />
    <linearGradient
       inkscape:collect="always"
       xlink:href="#linearGradient3789"
       id="linearGradient1407"
       gradientUnits="userSpaceOnUse"
       gradientTransform="matrix(1.444398,0.000000,0.000000,0.549936,-2.636967,-1.669978)"
       x1="22.635773"
       y1="69.979073"
       x2="21.722250"
       y2="69.019592" />
    <linearGradient
       inkscape:collect="always"
       xlink:href="#linearGradient3789"
       id="linearGradient1413"
       gradientUnits="userSpaceOnUse"
       gradientTransform="matrix(1.444398,0.000000,0.000000,0.547911,-2.636967,-1.487052)"
       x1="11.834872"
       y1="13.247005"
       x2="12.902342"
       y2="14.348741" />
    <linearGradient
       inkscape:collect="always"
       xlink:href="#linearGradient3809"
       id="linearGradient1422"
       gradientUnits="userSpaceOnUse"
       gradientTransform="matrix(0.962077,0.000000,0.000000,0.825640,-2.636967,-1.669979)"
       x1="36.730026"
       y1="50.916935"
       x2="34.962704"
       y2="47.422832" />
    <radialGradient
       inkscape:collect="always"
       xlink:href="#linearGradient3809"
       id="radialGradient1426"
       gradientUnits="userSpaceOnUse"
       gradientTransform="matrix(1.149253,0.000000,0.000000,0.661189,-2.666662,-1.084231)"
       cx="41.496334"
       cy="71.416321"
       fx="41.496319"
       fy="71.457962"
       r="6.0667119" />
    <linearGradient
       inkscape:collect="always"
       xlink:href="#linearGradient3809"
       id="linearGradient1429"
       gradientUnits="userSpaceOnUse"
       gradientTransform="matrix(1.205560,0.000000,0.000000,0.658886,-2.636967,-1.669979)"
       x1="25.510965"
       y1="54.553165"
       x2="24.003399"
       y2="50.468029" />
  </defs>
  <sodipodi:namedview
     inkscape:window-y="158"
     inkscape:window-x="280"
     inkscape:window-height="828"
     inkscape:window-width="827"
     inkscape:grid-bbox="false"
     inkscape:document-units="px"
     showgrid="true"
     inkscape:current-layer="layer1"
     inkscape:cy="23.056667"
     inkscape:cx="35.997024"
     inkscape:zoom="16"
     inkscape:pageshadow="2"
     inkscape:pageopacity="0.0"
     borderopacity="1.0"
     bordercolor="#666666"
     pagecolor="#ffffff"
     id="base"
     showguides="true"
     inkscape:guide-bbox="true"
     inkscape:snap-global="false">
    <inkscape:grid
       type="xygrid"
       id="grid4074"
       visible="true"
       enabled="true" />
  </sodipodi:namedview>
  <metadata
     id="metadata4">
    <rdf:RDF>
      <cc:Work
         rdf:about="">
        <dc:format>image/svg+xml</dc:format>
        <dc:type
           rdf:resource="http://purl.org/dc/dcmitype/StillImage" />
        <cc:license
           rdf:resource="http://creativecommons.org/licenses/by-sa/3.0/" />
        <dc:subject>
          <rdf:Bag>
            <rdf:li>key</rdf:li>
          </rdf:Bag>
        </dc:subject>
      </cc:Work>
      <cc:License
         rdf:about="http://creativecommons.org/licenses/by-sa/3.0/">
        <cc:permits
           rdf:resource="http://creativecommons.org/ns#Reproduction" />
        <cc:permits
           rdf:resource="http://creativecommons.org/ns#Distribution" />
        <cc:requires
           rdf:resource="http://creativecommons.org/ns#Notice" />
        <cc:permits
           rdf:resource="http://creativecommons.org/ns#DerivativeWorks" />
        <cc:requires
           rdf:resource="http://creativecommons.org/ns#ShareAlike" />
        <cc:requires
           rdf:resource="http://creativecommons.org/ns#SourceCode" />
      </cc:License>
    </rdf:RDF>
  </metadata>
  <g
     inkscape:groupmode="layer"
     inkscape:label="Layer 1"
     id="layer1">
    <path
       style="font-size:12px;fill:#562900;fill-opacity:1;fill-rule:evenodd;stroke-width:1pt"
       d="M 25.08937,2.5026019 L 0.0384532,9.0112532 L -0.0062757729,13.857255 L 9.762729,26.071309 L 20.891202,26.262547 L 26.43719,32.412494 L 24.418014,36.520453 L 30.026837,36.143836 L 29.289677,38.088497 L 30.603745,37.555284 L 28.584569,39.907697 L 29.289677,38.088497 L 26.511346,39.431506 L 30.417273,43.878315 L 34.731492,42.039166 L 35.347206,43.546097 L 30.571695,45.773048 L 43.840533,48.375 L 48.006276,46.056262 L 48.068776,38.495325 L 32.130128,22.029884 L 35.939765,17.528415 L 35.939765,13.098596 L 25.08937,2.5026019 z M 24.283056,3.9005488 L 32.057837,15.123396 L 13.439882,20.40112 L 2.4398742,9.991003 L 24.283056,3.9005488 z"
       id="path651"
       sodipodi:nodetypes="ccccccccccccccccccccccccccccc" />
    <path
       style="font-size:12px;fill:#b97c00;fill-opacity:1;fill-rule:evenodd;stroke-width:1pt"
       d="M 0.67395726,9.5431703 L 0.70558543,13.023072 L 10.206149,24.901665 L 21.620339,25.279027 L 27.46568,31.720374 L 25.645984,32.913188 L 25.774186,35.234236 L 31.026231,35.046274 L 31.669774,35.925317 L 28.40232,36.992322 L 28.306169,39.688139 L 30.533201,42.319958 L 35.500181,40.341221 L 37.273951,42.636266 L 46.767209,39.105594 L 30.068941,21.402044 L 11.764071,22.705312 L 0.67395726,9.5431703 z"
       id="path552"
       sodipodi:nodetypes="cccccccccccccccccc" />
    <path
       style="font-size:12px;fill:#8c4100;fill-opacity:1;fill-rule:evenodd;stroke-width:1pt"
       d="M 10.136158,21.537459 L 10.136158,24.889831 L 21.614107,25.315796 L 21.614107,21.495339 L 10.136158,21.537459 z"
       id="path553"
       sodipodi:nodetypes="ccccc" />
    <path
       style="font-size:12px;fill:#b97c00;fill-opacity:1;fill-rule:evenodd;stroke-width:1pt;stroke-opacity:0.99912397"
       d="M 23.037488,10.140419 L 27.5358,14.709245 L 29.395238,12.223022 L 23.214318,5.7255921 L 23.037488,10.140419 z"
       id="path559"
       sodipodi:nodetypes="ccccc" />
    <path
       style="font-size:12px;fill:#8c4100;fill-opacity:1;fill-rule:evenodd;stroke-width:1pt"
       d="M 34.891175,17.498237 L 34.891175,12.77965 L 29.127475,19.931171 L 31.246527,22.008253 L 34.891175,17.498237 z"
       id="path1324"
       sodipodi:nodetypes="ccccc" />
    <path
       style="font-size:12px;fill:#8c4100;fill-opacity:1;fill-rule:evenodd;stroke-width:1pt"
       d="M 7.8148733,11.389547 L 9.8453732,14.139094 L 23.173702,10.455865 L 23.173702,6.1349061 L 7.8148733,11.389547 z"
       id="path1326"
       sodipodi:nodetypes="ccccc" />
    <path
       id="path551"
       style="font-size:12px;fill:#cda51a;fill-opacity:1;fill-rule:evenodd;stroke-width:1pt"
       d="M 0.61916534,9.5858046 L 24.98189,3.0464498 L 34.968039,12.802031 L 29.192222,19.758457 L 46.957823,38.353364 L 46.981507,42.306242 L 44.558354,44.063342 L 33.771017,42.689549 L 38.555129,40.886114 L 35.695439,37.385281 L 30.614638,39.585418 L 28.358641,37.103716 L 33.384785,34.806845 L 31.080487,32.361223 L 25.700478,32.826645 L 27.941148,29.198325 L 21.636769,22.095797 L 10.172039,21.474477 L 0.61916534,9.5858046 z M 23.557352,7.1562131 L 8.1818748,11.365772 L 13.706421,17.832123 L 19.859066,18.26901 L 25.711579,16.67369 L 28.92047,12.520529 L 23.557352,7.1562131 z"
       sodipodi:nodetypes="cccccccccccccccccccccccccc" />
    <path
       style="font-size:12px;fill:none;fill-rule:evenodd;stroke:#7d5800;stroke-width:1.03721333;stroke-miterlimit:4;stroke-opacity:1"
       d="M 27.811212,21.08305 L 47.172676,42.063701"
       id="path558"
       sodipodi:nodetypes="cc" />
    <path
       style="font-size:12px;fill:#8c4100;fill-opacity:1;fill-rule:evenodd;stroke-width:1pt"
       d="M 33.574888,42.554898 L 33.574888,45.387663 L 43.992175,47.346966 L 46.857926,45.656459 L 47.017562,42.226166 L 44.011794,44.064549 L 33.574888,42.554898 z"
       id="path1496"
       sodipodi:nodetypes="ccccccc" />
    <path
       style="font-size:12px;fill:#8c4100;fill-opacity:1;fill-rule:evenodd;stroke-width:1pt"
       d="M 30.655085,39.439859 L 30.655085,42.481571 L 35.543321,40.379046 L 35.669834,37.369249 L 30.655085,39.439859 z"
       id="path1498"
       sodipodi:nodetypes="ccccc" />
    <path
       style="font-size:12px;fill:#8c4100;fill-opacity:1;fill-rule:evenodd;stroke-width:1pt"
       d="M 25.737894,32.858069 L 25.801151,35.561392 L 31.100554,35.164134 L 31.12098,32.435587 L 25.737894,32.858069 z"
       id="path1500"
       sodipodi:nodetypes="ccccc" />
    <path
       sodipodi:nodetypes="cc"
       id="path2472"
       d="M 26.98888,21.77055 L 46.4136,42.657451"
       style="font-size:12px;fill:none;fill-rule:evenodd;stroke:#b97c00;stroke-width:1.03721333;stroke-miterlimit:4;stroke-opacity:1" />
  </g>
</svg>
