<?xml version="1.0" encoding="UTF-8" standalone="no"?>
<!-- Created with Inkscape (http://www.inkscape.org/) -->
<svg
   xmlns:dc="http://purl.org/dc/elements/1.1/"
   xmlns:cc="http://creativecommons.org/ns#"
   xmlns:rdf="http://www.w3.org/1999/02/22-rdf-syntax-ns#"
   xmlns:svg="http://www.w3.org/2000/svg"
   xmlns="http://www.w3.org/2000/svg"
   xmlns:xlink="http://www.w3.org/1999/xlink"
   xmlns:sodipodi="http://inkscape.sourceforge.net/DTD/sodipodi-0.dtd"
   xmlns:inkscape="http://www.inkscape.org/namespaces/inkscape"
   sodipodi:docname="mounts.svg"
   sodipodi:docbase="/home/maker/Projects/e2work/icons-new/icon-work"
   inkscape:version="0.42"
   sodipodi:version="0.32"
   id="svg2"
   height="48.000000px"
   width="48.000000px"
   inkscape:export-filename="/home/maker/Projects/e2work/icons-new/mounts_48.png"
   inkscape:export-xdpi="90.000000"
   inkscape:export-ydpi="90.000000">
  <defs
     id="defs3">
    <linearGradient
       id="linearGradient11604">
      <stop
         style="stop-color:#528424;stop-opacity:1.0000000;"
         offset="0.0000000"
         id="stop11609" />
      <stop
         style="stop-color:#78bf34;stop-opacity:1.0000000;"
         offset="0.89999998"
         id="stop11610" />
      <stop
         style="stop-color:#acdb81;stop-opacity:1.0000000;"
         offset="1.0000000"
         id="stop11606" />
    </linearGradient>
    <radialGradient
       inkscape:collect="always"
       xlink:href="#linearGradient11604"
       id="radialGradient2135"
       cx="64.220680"
       cy="35.852074"
       fx="64.220680"
       fy="35.852074"
       r="22.335159"
       gradientTransform="matrix(0.775435,-0.459317,0.429500,0.770091,-7.318559,38.13104)"
       gradientUnits="userSpaceOnUse" />
  </defs>
  <sodipodi:namedview
     inkscape:window-y="33"
     inkscape:window-x="16"
     inkscape:window-height="877"
     inkscape:window-width="1094"
     showgrid="true"
     inkscape:current-layer="layer1"
     inkscape:document-units="px"
     inkscape:cy="21.820609"
     inkscape:cx="33.607406"
     inkscape:zoom="1.0000000"
     inkscape:pageshadow="2"
     inkscape:pageopacity="0.0"
     borderopacity="1.0"
     bordercolor="#666666"
     pagecolor="#ffffff"
     id="base" />
  <metadata
     id="metadata4">
    <rdf:RDF>
      <cc:Work
         rdf:about="">
        <dc:format>image/svg+xml</dc:format>
        <dc:type
           rdf:resource="http://purl.org/dc/dcmitype/StillImage" />
        <cc:license
           rdf:resource="http://creativecommons.org/licenses/by-sa/3.0/" />
        <dc:subject>
          <rdf:Bag>
            <rdf:li>mount</rdf:li>
          </rdf:Bag>
        </dc:subject>
      </cc:Work>
      <cc:License
         rdf:about="http://creativecommons.org/licenses/by-sa/3.0/">
        <cc:permits
           rdf:resource="http://creativecommons.org/ns#Reproduction" />
        <cc:permits
           rdf:resource="http://creativecommons.org/ns#Distribution" />
        <cc:requires
           rdf:resource="http://creativecommons.org/ns#Notice" />
        <cc:permits
           rdf:resource="http://creativecommons.org/ns#DerivativeWorks" />
        <cc:requires
           rdf:resource="http://creativecommons.org/ns#ShareAlike" />
        <cc:requires
           rdf:resource="http://creativecommons.org/ns#SourceCode" />
      </cc:License>
    </rdf:RDF>
  </metadata>
  <g
     id="layer1"
     inkscape:groupmode="layer"
     inkscape:label="Layer 1">
    <path
       style="fill:#244517;fill-opacity:1.0000000;fill-rule:nonzero;stroke:none;stroke-width:1.0000000pt;stroke-linecap:butt;stroke-linejoin:miter;stroke-opacity:1.0000000"
       id="path2052"
       d="M 0.12119960,21.182540 C 1.5051661,26.914877 11.544305,39.164086 30.968777,35.745051 L 30.968777,40.155140 C 10.647555,44.252231 0.18477787,32.357138 0.12119960,27.819852 L 0.12119960,21.182540 z "
       sodipodi:nodetypes="ccccc" />
    <path
       style="fill:#244517;fill-opacity:1.0000000;fill-rule:nonzero;stroke:none;stroke-width:1.0000000pt;stroke-linecap:butt;stroke-linejoin:miter;stroke-opacity:1.0000000"
       id="path2064"
       d="M 20.674237,21.182540 L 40.794213,24.791813 L 40.794213,29.256041 L 24.219889,26.097465 L 20.674237,21.182540 z "
       sodipodi:nodetypes="ccccc" />
    <path
       sodipodi:type="arc"
       style="fill:url(#radialGradient2135);fill-opacity:1.0;fill-rule:nonzero;stroke:#244517;stroke-width:1.4942696;stroke-linecap:square;stroke-linejoin:round;stroke-miterlimit:4.0000000;stroke-dasharray:none;stroke-dashoffset:0.0000000;stroke-opacity:1.0000000"
       id="path2105"
       sodipodi:cx="57.875000"
       sodipodi:cy="36.250000"
       sodipodi:rx="21.606871"
       sodipodi:ry="20.500000"
       d="M 79.443564,37.470165 A 21.606871,20.500000 0 1 1 71.839638,20.606885 L 57.875000,36.250000 z"
       sodipodi:start="0.059555435"
       sodipodi:end="5.4151218"
       transform="matrix(0.509295,0.618313,-0.807898,0.327445,20.30299,-26.09323)" />
    <path
       sodipodi:nodetypes="cccccc"
       id="path2790"
       d="M 32.098082,34.634477 L 32.098082,29.720936 L 48.046623,32.354923 L 48.046623,37.609133 C 47.787569,40.452884 41.140256,43.544453 39.445171,44.011784 L 32.098082,34.634477 z "
       style="fill:#6e222c;fill-opacity:1.0000000;fill-rule:evenodd;stroke:#000000;stroke-width:0.0000000;stroke-linecap:butt;stroke-linejoin:miter;stroke-miterlimit:4.0000000;stroke-dasharray:none;stroke-opacity:1.0000000" />
    <path
       style="fill:#ca2d32;fill-opacity:1.0000000;fill-rule:evenodd;stroke:#000000;stroke-width:0.0000000;stroke-linecap:butt;stroke-linejoin:miter;stroke-miterlimit:4.0000000;stroke-dasharray:none;stroke-opacity:1.0000000"
       d="M 32.207679,29.871968 L 48.000000,32.005351 C 46.916916,36.376318 42.923687,38.065338 39.533517,39.000000 L 32.207679,29.871968 z "
       id="path2788"
       sodipodi:nodetypes="cccc" />
  </g>
</svg>
