<?xml version="1.0" encoding="UTF-8" standalone="no"?>
<!-- Created with Inkscape (http://www.inkscape.org/) -->
<svg
   xmlns:dc="http://purl.org/dc/elements/1.1/"
   xmlns:cc="http://creativecommons.org/ns#"
   xmlns:rdf="http://www.w3.org/1999/02/22-rdf-syntax-ns#"
   xmlns:svg="http://www.w3.org/2000/svg"
   xmlns="http://www.w3.org/2000/svg"
   xmlns:xlink="http://www.w3.org/1999/xlink"
   xmlns:sodipodi="http://inkscape.sourceforge.net/DTD/sodipodi-0.dtd"
   xmlns:inkscape="http://www.inkscape.org/namespaces/inkscape"
   width="48.000000"
   height="48.000000"
   id="svg2"
   sodipodi:version="0.32"
   inkscape:version="0.42"
   sodipodi:docname="owners.svg"
   version="1.0"
   x="0.0000000"
   y="0.0000000"
   sodipodi:docbase="/home/maker/Projects/e2work/icons-new/icon-work"
   inkscape:export-filename="/home/maker/Projects/e2work/icons-new/owners_48.png"
   inkscape:export-xdpi="90.000000"
   inkscape:export-ydpi="90.000000">
  <defs
     id="defs4">
    <linearGradient
       id="linearGradient11604">
      <stop
         style="stop-color:#acdb81;stop-opacity:1.0000000;"
         offset="0.0000000"
         id="stop11605" />
      <stop
         style="stop-color:#78bf34;stop-opacity:1.0000000;"
         offset="0.25000000"
         id="stop11609" />
      <stop
         style="stop-color:#6daf30;stop-opacity:1.0000000;"
         offset="0.75000000"
         id="stop11610" />
      <stop
         style="stop-color:#3a5d19;stop-opacity:1.0000000;"
         offset="1.0000000"
         id="stop11606" />
    </linearGradient>
    <linearGradient
       inkscape:collect="always"
       xlink:href="#linearGradient11604"
       id="linearGradient2217"
       gradientUnits="userSpaceOnUse"
       gradientTransform="matrix(0.833814,-8.017692e-2,9.196676e-2,0.942939,-38.74569,10.93684)"
       x1="19.912571"
       y1="30.840954"
       x2="12.969634"
       y2="20.881042" />
    <linearGradient
       id="linearGradient4555">
      <stop
         style="stop-color:#fbb4b4;stop-opacity:1.0000000;"
         offset="0.0000000"
         id="stop4556" />
      <stop
         style="stop-color:#d5452c;stop-opacity:0.98823529;"
         offset="0.30164871"
         id="stop4557" />
      <stop
         id="stop2074"
         offset="0.95892054"
         style="stop-color:#b7281c;stop-opacity:1.0000000;" />
      <stop
         style="stop-color:#990c0c;stop-opacity:0.99215686;"
         offset="1.0000000"
         id="stop4558" />
    </linearGradient>
    <linearGradient
       id="linearGradient8670">
      <stop
         style="stop-color:#cdd1fb;stop-opacity:1.0000000;"
         offset="0.0000000"
         id="stop8671" />
      <stop
         style="stop-color:#7974ec;stop-opacity:1.0000000;"
         offset="1.0000000"
         id="stop8672" />
    </linearGradient>
    <radialGradient
       inkscape:collect="always"
       xlink:href="#linearGradient4555"
       id="radialGradient3396"
       cx="13.375005"
       cy="19.123421"
       fx="13.375005"
       fy="19.123421"
       r="12.495127"
       gradientTransform="matrix(-0.998750,-4.997638e-2,0.127329,-2.543028,24.29832,67.62749)"
       gradientUnits="userSpaceOnUse" />
    <radialGradient
       inkscape:collect="always"
       xlink:href="#linearGradient8670"
       id="radialGradient3404"
       cx="35.495205"
       cy="14.004312"
       fx="35.495205"
       fy="14.004312"
       r="12.495204"
       gradientTransform="matrix(1.000000,0.000000,0.000000,1.120085,0.000000,-1.681704)"
       gradientUnits="userSpaceOnUse" />
    <radialGradient
       inkscape:collect="always"
       xlink:href="#linearGradient8670"
       id="radialGradient3406"
       gradientUnits="userSpaceOnUse"
       gradientTransform="matrix(-1.000000,-5.406367e-9,1.406047e-8,-2.600724,70.99041,22.82566)"
       cx="35.495205"
       cy="6.5865669"
       fx="35.495205"
       fy="6.5865669"
       r="12.495204" />
    <radialGradient
       inkscape:collect="always"
       xlink:href="#linearGradient11604"
       id="radialGradient3423"
       cx="21.495205"
       cy="27.373497"
       fx="21.495205"
       fy="27.373497"
       r="12.495204"
       gradientTransform="matrix(-0.998965,-4.547472e-2,8.488538e-2,-1.864719,40.64456,78.59689)"
       gradientUnits="userSpaceOnUse" />
  </defs>
  <sodipodi:namedview
     id="base"
     pagecolor="#ffffff"
     bordercolor="#666666"
     borderopacity="1.0"
     inkscape:pageopacity="0.0"
     inkscape:pageshadow="2"
     inkscape:zoom="1.0000000"
     inkscape:cx="21.889783"
     inkscape:cy="17.945894"
     inkscape:document-units="px"
     inkscape:current-layer="layer3"
     showgrid="true"
     inkscape:grid-bbox="true"
     inkscape:window-width="836"
     inkscape:window-height="676"
     inkscape:window-x="73"
     inkscape:window-y="231" />
  <metadata
     id="metadata7">
    <rdf:RDF>
      <cc:Work
         rdf:about="">
        <dc:format>image/svg+xml</dc:format>
        <dc:type
           rdf:resource="http://purl.org/dc/dcmitype/StillImage" />
        <cc:license
           rdf:resource="http://creativecommons.org/licenses/by-sa/3.0/" />
      </cc:Work>
      <cc:License
         rdf:about="http://creativecommons.org/licenses/by-sa/3.0/">
        <cc:permits
           rdf:resource="http://creativecommons.org/ns#Reproduction" />
        <cc:permits
           rdf:resource="http://creativecommons.org/ns#Distribution" />
        <cc:requires
           rdf:resource="http://creativecommons.org/ns#Notice" />
        <cc:permits
           rdf:resource="http://creativecommons.org/ns#DerivativeWorks" />
        <cc:requires
           rdf:resource="http://creativecommons.org/ns#ShareAlike" />
        <cc:requires
           rdf:resource="http://creativecommons.org/ns#SourceCode" />
      </cc:License>
    </rdf:RDF>
  </metadata>
  <g
     inkscape:label="Layer 1"
     inkscape:groupmode="layer"
     id="layer1">
    <g
       id="g2535"
       transform="matrix(1.000000,0.000000,0.000000,1.000308,-0.879801,-11.75778)"
       style="fill-opacity:1.0;fill:url(#radialGradient3396)">
      <path
         sodipodi:nodetypes="cccccccccccccccc"
         id="path2493"
         d="M 13.402923,12.309495 C 12.575906,12.299095 11.835599,12.082328 10.498848,12.586188 C 7.2120570,13.494671 5.0357180,13.843282 4.0991430,20.059393 C 3.1069470,19.558781 2.4101130,19.129616 1.4779700,20.935493 C 1.1979120,23.695791 1.5366340,25.376514 2.2450180,27.073391 C 2.6491230,28.007019 3.2067020,28.229985 3.8637800,28.252258 C 4.1602630,30.657594 4.5960240,32.710970 4.8176960,33.613292 C 5.2632950,35.427206 7.5856230,38.044395 8.9224180,38.749780 C 10.259133,39.455163 10.951097,39.432145 13.981053,38.525234 C 17.011085,37.618325 18.711718,34.868634 20.745170,31.311696 C 21.025148,30.467450 21.303084,29.344186 21.583459,28.252258 C 22.355725,28.448200 23.038325,28.382040 23.693633,27.410209 C 24.701928,25.872088 25.138055,24.757767 25.370209,21.993039 C 24.791635,19.908972 24.217536,18.423050 22.363933,19.794810 C 21.123538,14.945908 19.079183,13.902663 16.264665,12.786655 C 15.035876,12.533493 14.229940,12.319895 13.402923,12.309495 z "
         style="fill:url(#radialGradient3396);fill-opacity:1.0;fill-rule:evenodd;stroke:#6e222c;stroke-width:0.99984598;stroke-linecap:butt;stroke-linejoin:round;stroke-miterlimit:4.0000000;stroke-dasharray:none;stroke-opacity:1.0000000" />
      <path
         id="path2495"
         d="M 11.322692,22.732929 C 11.336766,23.577226 10.496281,24.276601 9.4466120,24.294035 C 8.3969400,24.311469 7.5336110,23.640392 7.5195370,22.796094 C 7.5054630,21.951800 8.3459460,21.252423 9.3956160,21.234989 C 10.445286,21.217556 11.308617,21.888634 11.322692,22.732929 z "
         style="fill:url(#radialGradient3396);fill-rule:evenodd;stroke:#000000;stroke-width:1.4042845;stroke-miterlimit:4.0000000;stroke-opacity:0.58823532;fill-opacity:1.0" />
      <path
         sodipodi:nodetypes="ccc"
         id="path2497"
         d="M 8.1188960,23.667834 C 7.9944690,22.476988 11.027885,22.518369 10.734121,23.716161 C 10.014522,24.462213 8.3356390,24.123047 8.1188960,23.667834 z "
         style="fill:url(#radialGradient3396);fill-opacity:1.0;fill-rule:evenodd;stroke:#000000;stroke-width:1.3620750;stroke-linejoin:round;stroke-miterlimit:4.0000000;stroke-opacity:0.39215687" />
      <path
         id="path2499"
         d="M 17.534655,22.836754 C 17.548730,23.681049 16.708245,24.380427 15.658576,24.397860 C 14.608905,24.415293 13.745574,23.744215 13.731500,22.899920 C 13.717425,22.055624 14.557909,21.356247 15.607581,21.338814 C 16.657250,21.321380 17.520581,21.992458 17.534655,22.836754 z "
         style="fill:url(#radialGradient3396);fill-rule:evenodd;stroke:#000000;stroke-width:1.4042845;stroke-miterlimit:4.0000000;stroke-opacity:0.58823532;fill-opacity:1.0" />
      <path
         sodipodi:nodetypes="ccc"
         id="path2501"
         d="M 14.330859,23.771659 C 14.206431,22.580812 17.239848,22.622194 16.946083,23.819986 C 16.226483,24.566038 14.547603,24.226872 14.330859,23.771659 z "
         style="fill:url(#radialGradient3396);fill-opacity:1.0;fill-rule:evenodd;stroke:#000000;stroke-width:1.3620750;stroke-linejoin:round;stroke-miterlimit:4.0000000;stroke-opacity:0.39215687" />
      <path
         sodipodi:nodetypes="cc"
         id="path2503"
         d="M 8.3797120,32.974233 C 10.479472,33.708554 12.723815,33.671202 14.895864,33.072633"
         style="fill:url(#radialGradient3396);fill-opacity:1.0;fill-rule:evenodd;stroke:#000000;stroke-width:1.4042845;stroke-linecap:round;stroke-linejoin:miter;stroke-miterlimit:4.0000000;stroke-opacity:0.58823532" />
      <path
         id="path2505"
         d="M 12.281797,25.985576 L 10.899186,30.142588"
         style="fill:url(#radialGradient3396);fill-opacity:1.0;fill-rule:evenodd;stroke:#000000;stroke-width:1.4042845;stroke-linecap:round;stroke-linejoin:miter;stroke-miterlimit:4.0000000;stroke-opacity:0.58823532" />
    </g>
  </g>
  <g
     inkscape:groupmode="layer"
     id="layer2"
     inkscape:label="Layer2">
    <path
       style="fill:url(#radialGradient3423);fill-opacity:1.0;fill-rule:evenodd;stroke:#3a5d19;stroke-width:0.99999994;stroke-linecap:butt;stroke-linejoin:round;stroke-miterlimit:4.0000000;stroke-dasharray:none;stroke-opacity:1.0000000"
       d="M 21.523122,20.555509 C 20.696105,20.545106 19.955798,20.328272 18.619047,20.832288 C 15.332256,21.741050 13.155917,22.089769 12.219342,28.307794 C 11.227146,27.807028 10.530312,27.377731 9.5981695,29.184164 C 9.3181115,31.945312 9.6568335,33.626553 10.365217,35.323953 C 10.769322,36.257868 11.326901,36.480903 11.983979,36.503183 C 12.280462,38.909260 12.716223,40.963268 12.937895,41.865868 C 13.383494,43.680341 15.705822,46.298336 17.042617,47.003938 C 18.379332,47.709538 19.071296,47.686513 22.101252,46.779323 C 25.131284,45.872134 26.831917,43.121597 28.865369,39.563563 C 29.145347,38.719057 29.423283,37.595447 29.703658,36.503183 C 30.475924,36.699185 31.158524,36.633005 31.813832,35.660874 C 32.822127,34.122280 33.258254,33.007615 33.490408,30.242036 C 32.911834,28.157327 32.337735,26.670947 30.484132,28.043130 C 29.243737,23.192734 27.199382,22.149168 24.384864,21.032816 C 23.156075,20.779576 22.350139,20.565913 21.523122,20.555509 z "
       id="path2560"
       sodipodi:nodetypes="cccccccccccccccc" />
    <path
       style="fill:none;fill-rule:evenodd;stroke:#000000;stroke-width:1.4045007;stroke-miterlimit:4.0000000;stroke-opacity:0.58823532"
       d="M 19.442891,30.982154 C 19.456965,31.826711 18.616480,32.526301 17.566811,32.543741 C 16.517139,32.561180 15.653810,31.889896 15.639736,31.045338 C 15.625662,30.200784 16.466145,29.501192 17.515815,29.483752 C 18.565485,29.466314 19.428816,30.137599 19.442891,30.982154 z "
       id="path2562" />
    <path
       style="fill:none;fill-opacity:0.75000000;fill-rule:evenodd;stroke:#000000;stroke-width:1.3622847;stroke-linejoin:round;stroke-miterlimit:4.0000000;stroke-opacity:0.39215687"
       d="M 16.239095,31.917347 C 16.114668,30.726134 19.148084,30.767528 18.854320,31.965689 C 18.134721,32.711970 16.455838,32.372700 16.239095,31.917347 z "
       id="path2564"
       sodipodi:nodetypes="ccc" />
    <path
       style="fill:none;fill-rule:evenodd;stroke:#000000;stroke-width:1.4045007;stroke-miterlimit:4.0000000;stroke-opacity:0.58823532"
       d="M 25.654854,31.086011 C 25.668929,31.930566 24.828444,32.630159 23.778775,32.647598 C 22.729104,32.665036 21.865773,31.993751 21.851699,31.149196 C 21.837624,30.304640 22.678108,29.605048 23.727780,29.587609 C 24.777449,29.570170 25.640780,30.241455 25.654854,31.086011 z "
       id="path2566" />
    <path
       style="fill:none;fill-opacity:0.75000000;fill-rule:evenodd;stroke:#000000;stroke-width:1.3622847;stroke-linejoin:round;stroke-miterlimit:4.0000000;stroke-opacity:0.39215687"
       d="M 22.451058,32.021204 C 22.326630,30.829990 25.360047,30.871385 25.066282,32.069546 C 24.346682,32.815827 22.667802,32.476557 22.451058,32.021204 z "
       id="path2568"
       sodipodi:nodetypes="ccc" />
    <path
       style="fill:none;fill-opacity:0.75000000;fill-rule:evenodd;stroke:#000000;stroke-width:1.4045007;stroke-linecap:round;stroke-linejoin:miter;stroke-miterlimit:4.0000000;stroke-opacity:0.58823532"
       d="M 16.499911,41.226612 C 18.599671,41.961159 20.844014,41.923796 23.016063,41.325042"
       id="path2570"
       sodipodi:nodetypes="cc" />
    <path
       style="fill:none;fill-opacity:0.75000000;fill-rule:evenodd;stroke:#000000;stroke-width:1.4045007;stroke-linecap:round;stroke-linejoin:miter;stroke-miterlimit:4.0000000;stroke-opacity:0.58823532"
       d="M 20.401996,34.235803 L 19.019385,38.394095"
       id="path2572" />
  </g>
  <g
     inkscape:groupmode="layer"
     id="layer3"
     inkscape:label="Layer3">
    <g
       id="g2482"
       transform="translate(0.000000,6.000000)"
       style="fill-opacity:1.0;fill:url(#radialGradient3404)">
      <path
         style="fill:url(#radialGradient3406);fill-opacity:1.0;fill-rule:evenodd;stroke:#20205d;stroke-width:1.0000000;stroke-linecap:butt;stroke-linejoin:round;stroke-miterlimit:4.0000000;stroke-dasharray:none;stroke-opacity:0.97647059"
         d="M 35.523123,0.56380529 C 34.696106,0.55340522 33.955799,0.33663847 32.619048,0.84049796 C 29.332257,1.7489813 27.155918,2.0975924 26.219343,8.3137028 C 25.227147,7.8130911 24.530313,7.3839260 23.598170,9.1898033 C 23.318112,11.950101 23.656834,13.630824 24.365218,15.327701 C 24.769323,16.261329 25.326902,16.484295 25.983980,16.506568 C 26.280463,18.911904 26.716224,20.965280 26.937896,21.867602 C 27.383495,23.681516 29.705823,26.298705 31.042618,27.004090 C 32.379333,27.709473 33.071297,27.686455 36.101253,26.779544 C 39.131285,25.872635 40.831918,23.122944 42.865370,19.566006 C 43.145348,18.721760 43.423284,17.598496 43.703659,16.506568 C 44.475925,16.702510 45.158525,16.636350 45.813833,15.664519 C 46.822128,14.126398 47.258255,13.012077 47.490409,10.247349 C 46.911835,8.1632820 46.337736,6.6773601 44.484133,8.0491203 C 43.243738,3.2002182 41.199383,2.1569731 38.384865,1.0409654 C 37.156076,0.78780338 36.350140,0.57420537 35.523123,0.56380529 z "
         id="path8662"
         sodipodi:nodetypes="cccccccccccccccc" />
      <path
         style="fill:url(#radialGradient3404);fill-rule:evenodd;stroke:#000000;stroke-width:1.4045008;stroke-miterlimit:4.0000000;stroke-opacity:0.58823532;fill-opacity:1.0"
         d="M 33.442892,10.987239 C 33.456966,11.831536 32.616481,12.530911 31.566812,12.548345 C 30.517140,12.565779 29.653811,11.894702 29.639737,11.050404 C 29.625663,10.206110 30.466146,9.5067326 31.515816,9.4892989 C 32.565486,9.4718663 33.428817,10.142944 33.442892,10.987239 z "
         id="path8663" />
      <path
         style="fill:url(#radialGradient3404);fill-opacity:1.0;fill-rule:evenodd;stroke:#000000;stroke-width:1.3622848;stroke-linejoin:round;stroke-miterlimit:4.0000000;stroke-opacity:0.39215687"
         d="M 30.239096,11.922144 C 30.114669,10.731298 33.148085,10.772679 32.854321,11.970471 C 32.134722,12.716523 30.455839,12.377357 30.239096,11.922144 z "
         id="path8664"
         sodipodi:nodetypes="ccc" />
      <path
         style="fill:url(#radialGradient3404);fill-rule:evenodd;stroke:#000000;stroke-width:1.4045008;stroke-miterlimit:4.0000000;stroke-opacity:0.58823532;fill-opacity:1.0"
         d="M 39.654855,11.091064 C 39.668930,11.935359 38.828445,12.634737 37.778776,12.652170 C 36.729105,12.669603 35.865774,11.998525 35.851700,11.154230 C 35.837625,10.309934 36.678109,9.6105568 37.727781,9.5931241 C 38.777450,9.5756904 39.640781,10.246768 39.654855,11.091064 z "
         id="path8665" />
      <path
         style="fill:url(#radialGradient3404);fill-opacity:1.0;fill-rule:evenodd;stroke:#000000;stroke-width:1.3622848;stroke-linejoin:round;stroke-miterlimit:4.0000000;stroke-opacity:0.39215687"
         d="M 36.451059,12.025969 C 36.326631,10.835122 39.360048,10.876504 39.066283,12.074296 C 38.346683,12.820348 36.667803,12.481182 36.451059,12.025969 z "
         id="path8666"
         sodipodi:nodetypes="ccc" />
      <path
         style="fill:url(#radialGradient3404);fill-opacity:1.0;fill-rule:evenodd;stroke:#000000;stroke-width:1.4045008;stroke-linecap:round;stroke-linejoin:miter;stroke-miterlimit:4.0000000;stroke-opacity:0.58823532"
         d="M 30.499912,21.228543 C 32.599672,21.962864 34.844015,21.925512 37.016064,21.326943"
         id="path8667"
         sodipodi:nodetypes="cc" />
      <path
         style="fill:url(#radialGradient3404);fill-opacity:1.0;fill-rule:evenodd;stroke:#000000;stroke-width:1.4045008;stroke-linecap:round;stroke-linejoin:miter;stroke-miterlimit:4.0000000;stroke-opacity:0.58823532"
         d="M 34.401997,14.239886 L 33.019386,18.396898"
         id="path8668" />
    </g>
  </g>
</svg>
