<?xml version="1.0" encoding="UTF-8" standalone="no"?>
<!-- Created with Inkscape (http://www.inkscape.org/) -->
<svg
   xmlns:dc="http://purl.org/dc/elements/1.1/"
   xmlns:cc="http://creativecommons.org/ns#"
   xmlns:rdf="http://www.w3.org/1999/02/22-rdf-syntax-ns#"
   xmlns:svg="http://www.w3.org/2000/svg"
   xmlns="http://www.w3.org/2000/svg"
   xmlns:xlink="http://www.w3.org/1999/xlink"
   xmlns:sodipodi="http://sodipodi.sourceforge.net/DTD/sodipodi-0.dtd"
   xmlns:inkscape="http://www.inkscape.org/namespaces/inkscape"
   sodipodi:docname="plugin_acl.svg"
   sodipodi:docbase="/home/maker/Projects/e2work/icons-new/scalable"
   inkscape:version="0.45"
   sodipodi:version="0.32"
   id="svg2"
   height="48"
   width="48"
   version="1.0"
   inkscape:output_extension="org.inkscape.output.svg.inkscape"
   inkscape:export-filename="/home/maker/Projects/e2work/icons-new/plugin_acl_48.png"
   inkscape:export-xdpi="90"
   inkscape:export-ydpi="90"
   sodipodi:modified="true">
  <defs
     id="defs3">
    <linearGradient
       id="linearGradient4555">
      <stop
         style="stop-color:#fbb4b4;stop-opacity:1.0000000;"
         offset="0.0000000"
         id="stop4556" />
      <stop
         style="stop-color:#cc0000;stop-opacity:1;"
         offset="0.30164871"
         id="stop4557" />
      <stop
         id="stop2074"
         offset="0.95892054"
         style="stop-color:#a40000;stop-opacity:1;" />
      <stop
         style="stop-color:#990c0c;stop-opacity:0.99215686;"
         offset="1.0000000"
         id="stop4558" />
    </linearGradient>
    <linearGradient
       inkscape:collect="always"
       xlink:href="#linearGradient11604"
       id="linearGradient12162"
       gradientUnits="userSpaceOnUse"
       x1="47.967918"
       y1="33.386055"
       x2="46.686672"
       y2="-10.058324"
       gradientTransform="matrix(0.699023,7.1007435e-2,0.222756,0.8433296,4.040749,2.1459595)" />
    <linearGradient
       inkscape:collect="always"
       xlink:href="#linearGradient11604"
       id="linearGradient12157"
       gradientUnits="userSpaceOnUse"
       x1="22.71591"
       y1="29.830709"
       x2="17.492533"
       y2="-4.7679286"
       gradientTransform="matrix(0.658771,6.071172e-2,2.697491e-2,0.835795,-72.11547,27.151857)" />
    <linearGradient
       inkscape:collect="always"
       xlink:href="#linearGradient11604"
       id="linearGradient3826"
       x1="47.967918"
       y1="33.386055"
       x2="47.453545"
       y2="-3.6367612"
       gradientUnits="userSpaceOnUse"
       gradientTransform="matrix(0.597001,4.46217e-18,-1.627659e-17,0.597001,8.268637,-2.932728e-2)" />
    <linearGradient
       id="linearGradient11604">
      <stop
         style="stop-color:#3a5d19;stop-opacity:1.0000000;"
         offset="0.0000000"
         id="stop11605" />
      <stop
         style="stop-color:#6daf30;stop-opacity:1.0000000;"
         offset="0.25000000"
         id="stop11609" />
      <stop
         style="stop-color:#78bf34;stop-opacity:1.0000000;"
         offset="0.75000000"
         id="stop11610" />
      <stop
         style="stop-color:#acdb81;stop-opacity:1.0000000;"
         offset="1.0000000"
         id="stop11606" />
    </linearGradient>
    <linearGradient
       inkscape:collect="always"
       xlink:href="#linearGradient11604"
       id="linearGradient3810"
       x1="25.157633"
       y1="34.134277"
       x2="19.40391"
       y2="-0.48894948"
       gradientUnits="userSpaceOnUse"
       gradientTransform="matrix(0.597001,-3.201785e-18,-1.799098e-18,0.597001,8.720326,1.363324e-2)" />
    <linearGradient
       y2="63.192982"
       x2="34.843498"
       y1="54.827583"
       x1="35.076275"
       gradientTransform="matrix(1.125109,-0.278054,0.259093,0.897729,-10.13572,-7.750026)"
       gradientUnits="userSpaceOnUse"
       id="linearGradient6985"
       xlink:href="#linearGradient6977"
       inkscape:collect="always" />
    <linearGradient
       id="linearGradient6977">
      <stop
         style="stop-color:#eaeaf6;stop-opacity:1.0000000;"
         offset="0.0000000"
         id="stop6979" />
      <stop
         style="stop-color:#8480aa;stop-opacity:0.83505154;"
         offset="1.0000000"
         id="stop6981" />
    </linearGradient>
    <linearGradient
       y2="63.192982"
       x2="34.843498"
       y1="54.827583"
       x1="35.076275"
       gradientTransform="matrix(1.125109,-0.278054,0.259093,0.897729,-15.09071,-20.64595)"
       gradientUnits="userSpaceOnUse"
       id="linearGradient5276"
       xlink:href="#linearGradient6977"
       inkscape:collect="always" />
    <linearGradient
       gradientUnits="userSpaceOnUse"
       gradientTransform="matrix(1.79726,0,0,0.176533,21.18159,7.766546)"
       y2="36.981617"
       x2="18.43359"
       y1="31.658855"
       x1="14.93793"
       id="linearGradient612"
       xlink:href="#linearGradient584" />
    <linearGradient
       id="linearGradient584">
      <stop
         id="stop585"
         offset="0.00000000"
         style="stop-color:#ffffff;stop-opacity:1;" />
      <stop
         id="stop586"
         offset="1.00000000"
         style="stop-color:#ffffff;stop-opacity:0;" />
    </linearGradient>
    <linearGradient
       gradientUnits="userSpaceOnUse"
       gradientTransform="matrix(0.612621,0,0,0.5179,21.18159,7.766546)"
       y2="20.939442"
       x2="42.547943"
       y1="5.0095382"
       x1="26.906364"
       id="linearGradient583"
       xlink:href="#linearGradient584" />
    <linearGradient
       id="linearGradient578">
      <stop
         id="stop579"
         offset="0.0000000"
         style="stop-color:#484cbf;stop-opacity:1.0000000;" />
      <stop
         id="stop580"
         offset="1.0000000"
         style="stop-color:#68667f;stop-opacity:1.0000000;" />
    </linearGradient>
    <linearGradient
       gradientUnits="userSpaceOnUse"
       gradientTransform="matrix(0.632871,0,0,0.501329,21.18159,7.766516)"
       y2="35.985016"
       x2="57.566818"
       y1="3.2594953"
       x1="24.088284"
       id="linearGradient581"
       xlink:href="#linearGradient578" />
    <linearGradient
       gradientUnits="userSpaceOnUse"
       gradientTransform="matrix(0.571216,0,0,0.555441,24.77656,16.01462)"
       y2="42.924896"
       x2="24.273979"
       y1="23.152065"
       x1="4.8590279"
       id="linearGradient2617"
       xlink:href="#linearGradient584"
       inkscape:collect="always" />
    <linearGradient
       gradientUnits="userSpaceOnUse"
       gradientTransform="matrix(0.632864,0,0,0.501335,24.77656,16.01459)"
       y2="56.905663"
       x2="36.495159"
       y1="23.134741"
       x1="1.9471697"
       id="linearGradient2619"
       xlink:href="#linearGradient578"
       inkscape:collect="always" />
    <radialGradient
       inkscape:collect="always"
       xlink:href="#linearGradient4555"
       id="radialGradient2523"
       gradientUnits="userSpaceOnUse"
       gradientTransform="matrix(-0.916253,-4.631319e-2,0.116811,-2.356628,71.525419,68.80147)"
       cx="13.375005"
       cy="19.123421"
       fx="13.375005"
       fy="19.123421"
       r="12.495127" />
    <radialGradient
       inkscape:collect="always"
       xlink:href="#linearGradient4555"
       id="radialGradient2525"
       gradientUnits="userSpaceOnUse"
       gradientTransform="matrix(-0.916253,-4.631319e-2,0.116811,-2.356628,71.525419,68.80147)"
       cx="13.375005"
       cy="19.123421"
       fx="13.375005"
       fy="19.123421"
       r="12.495127" />
    <radialGradient
       inkscape:collect="always"
       xlink:href="#linearGradient4555"
       id="radialGradient2527"
       gradientUnits="userSpaceOnUse"
       gradientTransform="matrix(-0.916253,-4.631319e-2,0.116811,-2.356628,71.525419,68.80147)"
       cx="13.375005"
       cy="19.123421"
       fx="13.375005"
       fy="19.123421"
       r="12.495127" />
    <linearGradient
       inkscape:collect="always"
       xlink:href="#linearGradient11604"
       id="linearGradient5469"
       x1="35.930271"
       y1="47.125641"
       x2="32.995033"
       y2="24.68251"
       gradientUnits="userSpaceOnUse"
       gradientTransform="matrix(1.2675428,2.8786684e-8,-5.8563104e-8,1.2675429,-120.99437,53.575094)" />
  </defs>
  <sodipodi:namedview
     inkscape:window-y="130"
     inkscape:window-x="283"
     inkscape:window-height="684"
     inkscape:window-width="953"
     showgrid="true"
     inkscape:current-layer="layer3"
     inkscape:document-units="px"
     inkscape:cy="12.893593"
     inkscape:cx="41.854746"
     inkscape:zoom="5.6568542"
     inkscape:pageshadow="2"
     inkscape:pageopacity="0.0"
     borderopacity="1.0"
     bordercolor="#666666"
     pagecolor="#ffffff"
     id="base" />
  <metadata
     id="metadata4">
    <rdf:RDF>
      <cc:Work
         rdf:about="">
        <dc:format>image/svg+xml</dc:format>
        <dc:type
           rdf:resource="http://purl.org/dc/dcmitype/StillImage" />
        <dc:subject>
          <rdf:Bag>
            <rdf:li>plugin</rdf:li>
          </rdf:Bag>
        </dc:subject>
        <cc:license
           rdf:resource="http://creativecommons.org/licenses/by-sa/3.0/" />
      </cc:Work>
      <cc:License
         rdf:about="http://creativecommons.org/licenses/by-sa/3.0/">
        <cc:permits
           rdf:resource="http://creativecommons.org/ns#Reproduction" />
        <cc:permits
           rdf:resource="http://creativecommons.org/ns#Distribution" />
        <cc:requires
           rdf:resource="http://creativecommons.org/ns#Notice" />
        <cc:permits
           rdf:resource="http://creativecommons.org/ns#DerivativeWorks" />
        <cc:requires
           rdf:resource="http://creativecommons.org/ns#ShareAlike" />
        <cc:requires
           rdf:resource="http://creativecommons.org/ns#SourceCode" />
      </cc:License>
    </rdf:RDF>
  </metadata>
  <g
     inkscape:groupmode="layer"
     id="layer3"
     inkscape:label="face">
    <g
       id="g2529"
       transform="matrix(1,0,0,1.1590729,-42.292893,-17.76468)">
      <path
         sodipodi:nodetypes="cccccccccccccccc"
         id="path2493"
         d="M 61.530001,17.538182 C 60.771296,17.528545 60.09214,17.327666 58.865806,17.794594 C 55.850506,18.636486 53.853935,18.959546 52.994722,24.720026 C 52.084483,24.256108 51.445209,23.8584 50.590061,25.53191 C 50.333136,28.089882 50.64388,29.647411 51.29375,31.219911 C 51.664476,32.085105 52.175998,32.291728 52.7788,32.312368 C 53.050794,34.541398 53.450561,36.444264 53.653922,37.280448 C 54.062715,38.961405 56.193216,41.386759 57.41959,42.04044 C 58.645891,42.694119 59.280698,42.672788 62.060376,41.832352 C 64.840124,40.991918 66.400284,38.443775 68.26577,35.147555 C 68.522622,34.365191 68.7776,33.324259 69.034816,32.312368 C 69.743292,32.493947 70.369509,32.432638 70.970688,31.532039 C 71.895696,30.106661 72.295799,29.074018 72.508776,26.511939 C 71.977993,24.58063 71.451315,23.203624 69.750822,24.474837 C 68.612884,19.98135 66.737396,19.014573 64.15536,17.980367 C 63.02807,17.745761 62.288705,17.54782 61.530001,17.538182 z "
         style="fill:url(#radialGradient2523);fill-opacity:1;fill-rule:evenodd;stroke:#6e222c;stroke-width:0.92884815;stroke-linecap:butt;stroke-linejoin:round;stroke-miterlimit:4;stroke-dasharray:none;stroke-opacity:1" />
      <path
         sodipodi:nodetypes="cc"
         id="path2503"
         d="M 56.921712,36.68823 C 58.84803,37.368727 60.906988,37.334113 62.899623,36.779417"
         style="fill:url(#radialGradient2525);fill-opacity:1;fill-rule:evenodd;stroke:#000000;stroke-width:1.30456805;stroke-linecap:round;stroke-linejoin:miter;stroke-miterlimit:4;stroke-opacity:0.58823529" />
      <path
         id="path2505"
         d="M 60.501481,30.211831 L 59.233075,34.06414"
         style="fill:url(#radialGradient2527);fill-opacity:1;fill-rule:evenodd;stroke:#000000;stroke-width:1.30456805;stroke-linecap:round;stroke-linejoin:miter;stroke-miterlimit:4;stroke-opacity:0.58823529" />
      <path
         id="path7485"
         d="M 60.402054,26.473912 C 60.414965,27.256324 59.643905,27.904434 58.68094,27.920591 C 57.717971,27.936747 56.925954,27.314858 56.913043,26.532447 C 56.900131,25.750038 57.67119,25.101924 58.634156,25.085767 C 59.597123,25.069613 60.389141,25.691502 60.402054,26.473912 z "
         style="fill:none;fill-rule:evenodd;stroke:#000000;stroke-width:1.30456805;stroke-miterlimit:4;stroke-opacity:0.58823529" />
      <path
         sodipodi:nodetypes="ccc"
         id="path7487"
         d="M 57.462895,27.340289 C 57.348745,26.23673 60.131598,26.275079 59.862099,27.385074 C 59.20194,28.076441 57.661734,27.762135 57.462895,27.340289 z "
         style="fill:none;fill-opacity:0.75;fill-rule:evenodd;stroke:#000000;stroke-width:1.26535571;stroke-linejoin:round;stroke-miterlimit:4;stroke-opacity:0.39215686" />
      <path
         id="path7489"
         d="M 66.100902,26.570126 C 66.113815,27.352535 65.342755,28.00065 64.379789,28.016806 C 63.416822,28.03296 62.624803,27.411071 62.611892,26.628663 C 62.598979,25.846252 63.370038,25.198138 64.333007,25.181982 C 65.295972,25.165826 66.087991,25.787715 66.100902,26.570126 z "
         style="fill:none;fill-rule:evenodd;stroke:#000000;stroke-width:1.30456805;stroke-miterlimit:4;stroke-opacity:0.58823529" />
      <path
         sodipodi:nodetypes="ccc"
         id="path7491"
         d="M 63.161743,27.436504 C 63.047593,26.332944 65.830447,26.371293 65.560947,27.481289 C 64.900786,28.172655 63.360584,27.858351 63.161743,27.436504 z "
         style="fill:none;fill-opacity:0.75;fill-rule:evenodd;stroke:#000000;stroke-width:1.26535571;stroke-linejoin:round;stroke-miterlimit:4;stroke-opacity:0.39215686" />
    </g>
  </g>
  <g
     inkscape:label="overlay"
     id="layer2"
     inkscape:groupmode="layer">
    <path
       style="font-size:53.54060364px;font-style:normal;font-variant:normal;font-weight:bold;font-stretch:normal;writing-mode:lr-tb;text-anchor:start;fill:url(#linearGradient12162);fill-opacity:1;stroke:#3a5d19;stroke-width:1.00000095;stroke-linecap:butt;stroke-linejoin:round;stroke-miterlimit:4;stroke-opacity:1;font-family:Adventure"
       d="M 45.910415,30.315876 L 40.247721,31.5 C 40.168732,30.662364 40.014715,29.809956 39.785666,28.94277 C 39.288721,27.061424 38.527707,25.324896 37.502621,23.733176 C 36.477523,22.141474 35.431607,21.076881 34.364869,20.539399 L 34.381319,22.150234 C 34.419181,23.999263 34.527392,26.563457 34.705952,29.842826 L 29.043259,31.026953 C 28.968845,29.174221 28.926842,26.030303 28.917254,21.595184 C 29.011273,18.629585 29.228525,15.726555 29.569011,12.88609 C 29.890752,10.244007 30.499004,6.8013986 31.393766,2.5582529 L 32.010079,2.5350372 C 32.994624,2.492041 34.369023,2.4886182 36.133284,2.5247689 C 35.703905,4.6696413 35.178791,8.292339 34.557938,13.392874 C 34.518835,13.918156 34.481946,14.42934 34.44727,14.926429 C 35.743889,14.314367 36.962869,13.40833 38.104204,12.208313 C 39.253832,10.994875 40.236452,9.6428685 41.052068,8.1522939 C 41.879847,6.6630033 42.45541,5.1838269 42.778756,3.7147596 L 43.395069,3.6915439 C 44.379601,3.6485467 45.747912,3.6445054 47.5,3.6794199 C 47.324047,5.3923182 46.828941,7.2658657 46.014681,9.3000695 C 45.212575,11.335556 44.111668,13.20478 42.711955,14.90775 C 41.312221,16.610751 39.664492,17.823674 37.768766,18.546523 C 38.519279,19.008975 39.320537,19.641058 40.172542,20.442777 C 41.020646,21.22982 41.832812,22.12763 42.609041,23.136209 C 43.381365,24.130107 44.029931,25.104271 44.554737,26.058706 C 45.079519,27.01315 45.456444,27.923962 45.685516,28.791144 C 45.813618,29.276181 45.888584,29.784423 45.910415,30.315876"
       id="text6894" />
  </g>
  <g
     id="layer1"
     inkscape:groupmode="layer"
     inkscape:label="Layer 1">
    <g
       id="g2531"
       transform="translate(-23.999993,9.0000095)">
      <path
         style="fill:none;fill-opacity:1;fill-rule:evenodd;stroke:#2d2d4b;stroke-width:3.99999905;stroke-linecap:square;stroke-linejoin:round;stroke-miterlimit:4;stroke-dasharray:none;stroke-opacity:1"
         d="M 28.195262,32.24316 L 40.082957,25.70926 L 26.999993,16.999996 L 26.999993,35.999991 L 40.99999,35.999991"
         id="path1461"
         sodipodi:nodetypes="ccccc" />
      <path
         sodipodi:nodetypes="ccccc"
         id="path2205"
         d="M 28.187697,32.207792 L 39.911451,25.701814 L 26.999989,16.999995 L 26.999989,35.99999 L 40.999985,35.99999"
         style="fill:none;fill-opacity:1;fill-rule:evenodd;stroke:#26198c;stroke-width:1.9999994;stroke-linecap:square;stroke-linejoin:round;stroke-miterlimit:4;stroke-dasharray:none;stroke-opacity:1" />
    </g>
  </g>
</svg>
