<?xml version="1.0" encoding="UTF-8" standalone="no"?>
<!-- Created with Inkscape (http://www.inkscape.org/) -->
<svg
   xmlns:dc="http://purl.org/dc/elements/1.1/"
   xmlns:cc="http://creativecommons.org/ns#"
   xmlns:rdf="http://www.w3.org/1999/02/22-rdf-syntax-ns#"
   xmlns:svg="http://www.w3.org/2000/svg"
   xmlns="http://www.w3.org/2000/svg"
   xmlns:xlink="http://www.w3.org/1999/xlink"
   xmlns:sodipodi="http://inkscape.sourceforge.net/DTD/sodipodi-0.dtd"
   xmlns:inkscape="http://www.inkscape.org/namespaces/inkscape"
   sodipodi:docname="plugin_rename.svg"
   sodipodi:docbase="/home/maker/Projects/e2work/icons-new/icon-work"
   inkscape:version="0.43"
   sodipodi:version="0.32"
   id="svg2"
   height="48.000000px"
   width="48.000000px"
   inkscape:export-filename="/home/maker/Projects/e2work/icons-new/plugin_rename_48.png"
   inkscape:export-xdpi="90.000000"
   inkscape:export-ydpi="90.000000">
  <defs
     id="defs3">
    <linearGradient
       id="linearGradient2091">
      <stop
         id="stop2093"
         offset="0.0000000"
         style="stop-color:#e9c1c1;stop-opacity:1.0000000;" />
      <stop
         id="stop2885"
         offset="0.78571427"
         style="stop-color:#c44242;stop-opacity:0.98823529;" />
      <stop
         id="stop2095"
         offset="1.0000000"
         style="stop-color:#951c1c;stop-opacity:0.97938144;" />
    </linearGradient>
    <radialGradient
       gradientUnits="userSpaceOnUse"
       r="9.7667875"
       fy="36.983906"
       fx="46.397964"
       cy="37.072666"
       cx="46.397972"
       gradientTransform="scale(1.014624,0.985587)"
       id="radialGradient2089"
       xlink:href="#linearGradient2091"
       inkscape:collect="always" />
    <linearGradient
       id="linearGradient2107">
      <stop
         id="stop2109"
         offset="0.0000000"
         style="stop-color:#bed3e9;stop-opacity:1.0000000;" />
      <stop
         id="stop2111"
         offset="1.0000000"
         style="stop-color:#4e57a5;stop-opacity:0.90721649;" />
    </linearGradient>
    <linearGradient
       y2="17.591276"
       x2="50.386978"
       y1="16.593342"
       x1="38.094940"
       spreadMethod="reflect"
       gradientTransform="matrix(0.909034,0,0,1.018522,-15.55328,-3.022736)"
       gradientUnits="userSpaceOnUse"
       id="linearGradient2125"
       xlink:href="#linearGradient2107"
       inkscape:collect="always" />
    <linearGradient
       y2="63.192982"
       x2="34.843498"
       y1="54.827583"
       x1="35.076275"
       gradientTransform="matrix(1.125109,-0.278054,0.259093,0.897729,-10.13572,-7.750026)"
       gradientUnits="userSpaceOnUse"
       id="linearGradient6985"
       xlink:href="#linearGradient6977"
       inkscape:collect="always" />
    <linearGradient
       id="linearGradient6977">
      <stop
         style="stop-color:#eaeaf6;stop-opacity:1.0000000;"
         offset="0.0000000"
         id="stop6979" />
      <stop
         style="stop-color:#8480aa;stop-opacity:0.83505154;"
         offset="1.0000000"
         id="stop6981" />
    </linearGradient>
    <linearGradient
       y2="63.192982"
       x2="34.843498"
       y1="54.827583"
       x1="35.076275"
       gradientTransform="matrix(1.125109,-0.278054,0.259093,0.897729,-15.09071,-20.64595)"
       gradientUnits="userSpaceOnUse"
       id="linearGradient5276"
       xlink:href="#linearGradient6977"
       inkscape:collect="always" />
    <linearGradient
       gradientUnits="userSpaceOnUse"
       gradientTransform="matrix(1.797260,0.000000,0.000000,0.176533,21.18159,7.766546)"
       y2="36.981618"
       x2="18.433590"
       y1="31.658856"
       x1="14.937930"
       id="linearGradient612"
       xlink:href="#linearGradient584" />
    <linearGradient
       id="linearGradient584">
      <stop
         id="stop585"
         offset="0.00000000"
         style="stop-color:#ffffff;stop-opacity:1;" />
      <stop
         id="stop586"
         offset="1.00000000"
         style="stop-color:#ffffff;stop-opacity:0;" />
    </linearGradient>
    <linearGradient
       gradientUnits="userSpaceOnUse"
       gradientTransform="matrix(0.612621,0.000000,0.000000,0.517900,21.18159,7.766546)"
       y2="20.939441"
       x2="42.547944"
       y1="5.0095384"
       x1="26.906364"
       id="linearGradient583"
       xlink:href="#linearGradient584" />
    <linearGradient
       id="linearGradient578">
      <stop
         id="stop579"
         offset="0.0000000"
         style="stop-color:#484cbf;stop-opacity:1.0000000;" />
      <stop
         id="stop580"
         offset="1.0000000"
         style="stop-color:#68667f;stop-opacity:1.0000000;" />
    </linearGradient>
    <linearGradient
       gradientUnits="userSpaceOnUse"
       gradientTransform="matrix(0.632871,0.000000,0.000000,0.501329,21.18159,7.766516)"
       y2="35.985016"
       x2="57.566818"
       y1="3.2594952"
       x1="24.088284"
       id="linearGradient581"
       xlink:href="#linearGradient578" />
    <linearGradient
       gradientUnits="userSpaceOnUse"
       gradientTransform="matrix(0.571216,0.000000,0.000000,0.555441,24.77656,16.01462)"
       y2="42.924896"
       x2="24.273980"
       y1="23.152065"
       x1="4.8590281"
       id="linearGradient2617"
       xlink:href="#linearGradient584"
       inkscape:collect="always" />
    <linearGradient
       gradientUnits="userSpaceOnUse"
       gradientTransform="matrix(0.632864,0.000000,0.000000,0.501335,24.77656,16.01459)"
       y2="56.905662"
       x2="36.495159"
       y1="23.134740"
       x1="1.9471697"
       id="linearGradient2619"
       xlink:href="#linearGradient578"
       inkscape:collect="always" />
  </defs>
  <sodipodi:namedview
     inkscape:window-y="146"
     inkscape:window-x="345"
     inkscape:window-height="684"
     inkscape:window-width="953"
     showgrid="true"
     inkscape:current-layer="layer2"
     inkscape:document-units="px"
     inkscape:cy="30.892437"
     inkscape:cx="20.257927"
     inkscape:zoom="1"
     inkscape:pageshadow="2"
     inkscape:pageopacity="0.0"
     borderopacity="1.0"
     bordercolor="#666666"
     pagecolor="#ffffff"
     id="base" />
  <metadata
     id="metadata4">
    <rdf:RDF>
      <cc:Work
         rdf:about="">
        <dc:format>image/svg+xml</dc:format>
        <dc:type
           rdf:resource="http://purl.org/dc/dcmitype/StillImage" />
        <dc:subject>
          <rdf:Bag>
            <rdf:li>plugin</rdf:li>
          </rdf:Bag>
        </dc:subject>
        <cc:license
           rdf:resource="http://creativecommons.org/licenses/by-sa/3.0/" />
      </cc:Work>
      <cc:License
         rdf:about="http://creativecommons.org/licenses/by-sa/3.0/">
        <cc:permits
           rdf:resource="http://creativecommons.org/ns#Reproduction" />
        <cc:permits
           rdf:resource="http://creativecommons.org/ns#Distribution" />
        <cc:requires
           rdf:resource="http://creativecommons.org/ns#Notice" />
        <cc:permits
           rdf:resource="http://creativecommons.org/ns#DerivativeWorks" />
        <cc:requires
           rdf:resource="http://creativecommons.org/ns#ShareAlike" />
        <cc:requires
           rdf:resource="http://creativecommons.org/ns#SourceCode" />
      </cc:License>
    </rdf:RDF>
  </metadata>
  <g
     id="layer1"
     inkscape:groupmode="layer"
     inkscape:label="Layer 1">
    <g
       id="g2531"
       transform="translate(-23.99999,9.000004)">
      <path
         style="fill:none;fill-opacity:1;fill-rule:evenodd;stroke:#2d2d4b;stroke-width:3.99999905;stroke-linecap:square;stroke-linejoin:round;stroke-miterlimit:4;stroke-dasharray:none;stroke-opacity:1"
         d="M 28.195262,32.24316 L 40.082957,25.70926 L 26.999993,16.999996 L 26.999993,35.999991 L 40.99999,35.999991"
         id="path1461"
         sodipodi:nodetypes="ccccc" />
      <path
         sodipodi:nodetypes="ccccc"
         id="path2205"
         d="M 28.187697,32.207792 L 39.911451,25.701814 L 26.999989,16.999995 L 26.999989,35.99999 L 40.999985,35.99999"
         style="fill:none;fill-opacity:1;fill-rule:evenodd;stroke:#26198c;stroke-width:1.9999994;stroke-linecap:square;stroke-linejoin:round;stroke-miterlimit:4;stroke-dasharray:none;stroke-opacity:1" />
    </g>
  </g>
  <g
     inkscape:label="overlay"
     id="layer2"
     inkscape:groupmode="layer">
    <path
       sodipodi:nodetypes="ccccc"
       id="path2097"
       d="M 20.114046,4.2345795 L 10.851347,18.236746 L 20.114046,25.102391 L 29.516819,17.631968 L 20.114046,4.2345795 z "
       style="fill:url(#linearGradient2125);fill-opacity:1;fill-rule:evenodd;stroke:#343461;stroke-width:0.9999997;stroke-linecap:butt;stroke-linejoin:miter;stroke-miterlimit:4;stroke-dasharray:none;stroke-opacity:1" />
    <path
       sodipodi:nodetypes="cccc"
       id="path2113"
       d="M 20.002942,4.6791408 L 20,25 L 29.054976,17.35496 L 20.002942,4.6791408 z "
       style="fill:#000000;fill-opacity:0.38461537;fill-rule:evenodd;stroke:#000000;stroke-width:0;stroke-linecap:butt;stroke-linejoin:miter;stroke-miterlimit:4;stroke-opacity:1" />
    <path
       transform="matrix(1.013052,0,0,1.064847,-14.73571,-7.776468)"
       d="M 56.5 39.25 A 8.25 8 0 1 1  40,39.25 A 8.25 8 0 1 1  56.5 39.25 z"
       sodipodi:ry="8"
       sodipodi:rx="8.25"
       sodipodi:cy="39.25"
       sodipodi:cx="48.25"
       id="path1321"
       style="fill:url(#radialGradient2089);fill-opacity:1;fill-rule:nonzero;stroke:#541717;stroke-width:0.96281034;stroke-linecap:square;stroke-linejoin:round;stroke-miterlimit:4;stroke-dasharray:none;stroke-dashoffset:0;stroke-opacity:1"
       sodipodi:type="arc" />
  </g>
</svg>
