<?xml version="1.0" encoding="UTF-8" standalone="no"?>
<!-- Created with Inkscape (http://www.inkscape.org/) -->
<svg
   xmlns:dc="http://purl.org/dc/elements/1.1/"
   xmlns:cc="http://creativecommons.org/ns#"
   xmlns:rdf="http://www.w3.org/1999/02/22-rdf-syntax-ns#"
   xmlns:svg="http://www.w3.org/2000/svg"
   xmlns="http://www.w3.org/2000/svg"
   xmlns:xlink="http://www.w3.org/1999/xlink"
   xmlns:sodipodi="http://inkscape.sourceforge.net/DTD/sodipodi-0.dtd"
   xmlns:inkscape="http://www.inkscape.org/namespaces/inkscape"
   sodipodi:docname="plugin_copy.svg"
   sodipodi:docbase="/home/maker/Projects/e2work/icons-new/icon-work"
   inkscape:version="0.43"
   sodipodi:version="0.32"
   id="svg2"
   height="48.000000px"
   width="48.000000px"
   inkscape:export-filename="/home/maker/Projects/e2work/icons-new/plugin_copy_48.png"
   inkscape:export-xdpi="90.000000"
   inkscape:export-ydpi="90.000000">
  <defs
     id="defs3">
    <linearGradient
       y2="63.192982"
       x2="34.843498"
       y1="54.827583"
       x1="35.076275"
       gradientTransform="matrix(1.190594,-0.278054,0.274173,0.897729,-16.38443,-3.750026)"
       gradientUnits="userSpaceOnUse"
       id="linearGradient6985"
       xlink:href="#linearGradient6977"
       inkscape:collect="always" />
    <linearGradient
       id="linearGradient6977">
      <stop
         style="stop-color:#eaeaf6;stop-opacity:1.0000000;"
         offset="0.0000000"
         id="stop6979" />
      <stop
         style="stop-color:#8480aa;stop-opacity:0.83505154;"
         offset="1.0000000"
         id="stop6981" />
    </linearGradient>
    <linearGradient
       y2="63.192982"
       x2="34.843498"
       y1="54.827583"
       x1="35.076275"
       gradientTransform="matrix(1.190593,-0.276901,0.274173,0.894007,-21.38444,-15.55414)"
       gradientUnits="userSpaceOnUse"
       id="linearGradient5276"
       xlink:href="#linearGradient6977"
       inkscape:collect="always" />
    <linearGradient
       gradientUnits="userSpaceOnUse"
       gradientTransform="matrix(1.797260,0.000000,0.000000,0.176533,21.18159,7.766546)"
       y2="36.981618"
       x2="18.433590"
       y1="31.658856"
       x1="14.937930"
       id="linearGradient612"
       xlink:href="#linearGradient584" />
    <linearGradient
       id="linearGradient584">
      <stop
         id="stop585"
         offset="0.00000000"
         style="stop-color:#ffffff;stop-opacity:1;" />
      <stop
         id="stop586"
         offset="1.00000000"
         style="stop-color:#ffffff;stop-opacity:0;" />
    </linearGradient>
    <linearGradient
       gradientUnits="userSpaceOnUse"
       gradientTransform="matrix(0.612621,0.000000,0.000000,0.517900,21.18159,7.766546)"
       y2="20.939441"
       x2="42.547944"
       y1="5.0095384"
       x1="26.906364"
       id="linearGradient583"
       xlink:href="#linearGradient584" />
    <linearGradient
       id="linearGradient578">
      <stop
         id="stop579"
         offset="0.0000000"
         style="stop-color:#484cbf;stop-opacity:1.0000000;" />
      <stop
         id="stop580"
         offset="1.0000000"
         style="stop-color:#68667f;stop-opacity:1.0000000;" />
    </linearGradient>
    <linearGradient
       gradientUnits="userSpaceOnUse"
       gradientTransform="matrix(0.632871,0.000000,0.000000,0.501329,21.18159,7.766516)"
       y2="35.985016"
       x2="57.566818"
       y1="3.2594952"
       x1="24.088284"
       id="linearGradient581"
       xlink:href="#linearGradient578" />
    <linearGradient
       gradientUnits="userSpaceOnUse"
       gradientTransform="matrix(0.571216,0.000000,0.000000,0.555441,24.77656,16.01462)"
       y2="42.924896"
       x2="24.273980"
       y1="23.152065"
       x1="4.8590281"
       id="linearGradient2617"
       xlink:href="#linearGradient584"
       inkscape:collect="always" />
    <linearGradient
       gradientUnits="userSpaceOnUse"
       gradientTransform="matrix(0.632864,0.000000,0.000000,0.501335,24.77656,16.01459)"
       y2="56.905662"
       x2="36.495159"
       y1="23.134740"
       x1="1.9471697"
       id="linearGradient2619"
       xlink:href="#linearGradient578"
       inkscape:collect="always" />
  </defs>
  <sodipodi:namedview
     inkscape:window-y="146"
     inkscape:window-x="345"
     inkscape:window-height="684"
     inkscape:window-width="953"
     showgrid="true"
     inkscape:current-layer="layer2"
     inkscape:document-units="px"
     inkscape:cy="20.285835"
     inkscape:cx="20.257927"
     inkscape:zoom="1"
     inkscape:pageshadow="2"
     inkscape:pageopacity="0.0"
     borderopacity="1.0"
     bordercolor="#666666"
     pagecolor="#ffffff"
     id="base" />
  <metadata
     id="metadata4">
    <rdf:RDF>
      <cc:Work
         rdf:about="">
        <dc:format>image/svg+xml</dc:format>
        <dc:type
           rdf:resource="http://purl.org/dc/dcmitype/StillImage" />
        <dc:subject>
          <rdf:Bag>
            <rdf:li>plugin</rdf:li>
          </rdf:Bag>
        </dc:subject>
        <cc:license
           rdf:resource="http://creativecommons.org/licenses/by-sa/3.0/" />
      </cc:Work>
      <cc:License
         rdf:about="http://creativecommons.org/licenses/by-sa/3.0/">
        <cc:permits
           rdf:resource="http://creativecommons.org/ns#Reproduction" />
        <cc:permits
           rdf:resource="http://creativecommons.org/ns#Distribution" />
        <cc:requires
           rdf:resource="http://creativecommons.org/ns#Notice" />
        <cc:permits
           rdf:resource="http://creativecommons.org/ns#DerivativeWorks" />
        <cc:requires
           rdf:resource="http://creativecommons.org/ns#ShareAlike" />
        <cc:requires
           rdf:resource="http://creativecommons.org/ns#SourceCode" />
      </cc:License>
    </rdf:RDF>
  </metadata>
  <g
     id="layer1"
     inkscape:groupmode="layer"
     inkscape:label="Layer 1">
    <g
       id="g2531"
       transform="translate(-23.99999,9.000004)">
      <path
         style="fill:none;fill-opacity:1;fill-rule:evenodd;stroke:#2d2d4b;stroke-width:3.99999905;stroke-linecap:square;stroke-linejoin:round;stroke-miterlimit:4;stroke-dasharray:none;stroke-opacity:1"
         d="M 28.195262,32.24316 L 40.082957,25.70926 L 26.999993,16.999996 L 26.999993,35.999991 L 40.99999,35.999991"
         id="path1461"
         sodipodi:nodetypes="ccccc" />
      <path
         sodipodi:nodetypes="ccccc"
         id="path2205"
         d="M 28.187697,32.207792 L 39.911451,25.701814 L 26.999989,16.999995 L 26.999989,35.99999 L 40.999985,35.99999"
         style="fill:none;fill-opacity:1;fill-rule:evenodd;stroke:#26198c;stroke-width:1.9999994;stroke-linecap:square;stroke-linejoin:round;stroke-miterlimit:4;stroke-dasharray:none;stroke-opacity:1" />
    </g>
  </g>
  <g
     inkscape:label="overlay"
     id="layer2"
     inkscape:groupmode="layer">
    <path
       sodipodi:nodetypes="ccccc"
       id="path5274"
       style="font-size:12px;fill:url(#linearGradient5276);fill-opacity:1;fill-rule:evenodd;stroke:#261933;stroke-width:1.00000012;stroke-miterlimit:4;stroke-dasharray:none"
       d="M 19.848766,31.241241 C 22.770544,31.664337 35.429813,31.504752 38.286943,31.216549 C 38.551016,26.171569 38.621968,10.272031 38.193636,6.8531691 C 34.123528,6.2400994 23.030337,6.5555144 19.84783,6.8272465 C 19.394046,10.175137 19.373865,26.142876 19.848766,31.241241 z " />
    <path
       sodipodi:nodetypes="ccccc"
       id="path6983"
       style="font-size:12px;fill:url(#linearGradient6985);fill-opacity:1;fill-rule:evenodd;stroke:#261933;stroke-width:1.00000036;stroke-miterlimit:4;stroke-dasharray:none"
       d="M 24.848773,43.240172 C 27.770552,43.665029 40.429822,43.504781 43.286952,43.215377 C 43.551027,38.149393 43.621976,22.18366 43.193646,18.750564 C 39.123538,18.134943 28.030344,18.451671 24.847837,18.724535 C 24.394053,22.086364 24.373872,38.120582 24.848773,43.240172 z " />
  </g>
</svg>
